Exercise1/Question4/simulation/qsim/Question4.msim.vcd
$comment
	File created using the following command:
		vcd file Question4.msim.vcd -direction
$end
$date
	Thu Mar 10 20:50:44 2022
$end
$version
	ModelSim Version 10.1d
$end
$timescale
	1ps
$end
$scope module Question4_vlg_vec_tst $end
$var reg 1 ! CLK $end
$var reg 1 " CLRN $end
$var reg 1 # D $end
$var reg 1 $ SET $end
$var wire 1 % Q $end
$var wire 1 & sampler $end
$scope module i1 $end
$var wire 1 ' gnd $end
$var wire 1 ( vcc $end
$var wire 1 ) unknown $end
$var tri1 1 * devclrn $end
$var tri1 1 + devpor $end
$var tri1 1 , devoe $end
$var wire 1 - CLK~combout $end
$var wire 1 . CLRN~combout $end
$var wire 1 / SET~combout $end
$var wire 1 0 inst~1_combout $end
$var wire 1 1 D~combout $end
$var wire 1 2 inst~3_combout $end
$var wire 1 3 inst~0_combout $end
$var wire 1 4 inst~_emulated_regout $end
$var wire 1 5 inst~2_combout $end
$upscope $end
$upscope $end
$enddefinitions $end
#0
$dumpvars
0!
0"
0#
1$
0%
x&
0'
1(
x)
1*
1+
1,
0-
0.
1/
00
01
02
13
04
05
$end
#25000
1!
1"
1-
1.
0&
03
#50000
1#
0!
11
0-
1&
12
#75000
1!
1-
0&
14
15
1%
#100000
0#
0!
01
0-
1&
02
#125000
1!
1-
0&
04
05
0%
#150000
1#
0!
11
0-
1&
12
#175000
1!
1-
0&
14
15
1%
#200000
0"
0!
0.
0-
1&
05
13
0%
04
#225000
1!
1-
0&
#250000
0#
1"
0!
01
1.
0-
1&
02
03
#275000
1!
1-
0&
#300000
0$
0!
0/
0-
1&
15
13
10
12
1%
#325000
1!
1-
0&
#350000
1$
0!
1/
0-
1&
03
#375000
1!
1-
0&
14
05
0%
