Exercise1/Question4/simulation/qsim/Question4.msim.vcd
$comment
	File created using the following command:
		vcd file Question4.msim.vcd -direction
$end
$date
	Thu Mar 10 22:49:41 2022
$end
$version
	ModelSim Version 10.1d
$end
$timescale
	1ps
$end
$scope module Question4_vlg_vec_tst $end
$var reg 1 ! CLK $end
$var reg 1 " CLRN $end
$var reg 1 # D $end
$var reg 1 $ SET $end
$var wire 1 % Q $end
$var wire 1 & sampler $end
$scope module i1 $end
$var wire 1 ' gnd $end
$var wire 1 ( vcc $end
$var wire 1 ) unknown $end
$var tri1 1 * devclrn $end
$var tri1 1 + devpor $end
$var tri1 1 , devoe $end
$var wire 1 - CLK~combout $end
$var wire 1 . CLRN~combout $end
$var wire 1 / SET~combout $end
$var wire 1 0 inst~1_combout $end
$var wire 1 1 D~combout $end
$var wire 1 2 inst~3_combout $end
$var wire 1 3 inst~0_combout $end
$var wire 1 4 inst~_emulated_regout $end
$var wire 1 5 inst~2_combout $end
$upscope $end
$upscope $end
$enddefinitions $end
#0
$dumpvars
0!
0"
0#
1$
x%
x&
0'
1(
x)
1*
1+
1,
0-
0.
1/
x0
01
x2
x3
x4
x5
$end
#218
04
#814
13
#815
05
#1087
00
#4186
0%
#4946
02
#25000
1!
1"
0&
#25840
1-
#25979
1.
#26793
03
#50000
1#
0!
1&
#50840
0-
#50850
11
#55796
12
#75000
1!
0&
#75840
1-
#77575
14
#78335
15
#81706
1%
#100000
0#
0!
1&
#100840
0-
#100850
01
#105796
02
#125000
1!
0&
#125840
1-
#127575
04
#128335
05
#131706
0%
#150000
1#
0!
1&
#150840
0-
#150850
11
#155796
12
#175000
1!
0&
#175840
1-
#177575
14
#178335
15
#181706
1%
#200000
0"
0!
1&
#200840
0-
#200979
0.
#201793
13
#201794
05
#202961
04
#205165
0%
#225000
1!
0&
#225840
1-
#250000
0#
1"
0!
1&
#250840
0-
#250850
01
#250979
1.
#251793
03
#255796
02
#275000
1!
0&
#275840
1-
#300000
0$
0!
1&
#300840
0-
#300979
0/
#302040
15
#302070
13
#302111
10
#302822
12
#305411
1%
#325000
1!
0&
#325840
1-
#350000
1$
0!
1&
#350840
0-
#350979
1/
#352070
03
#375000
1!
0&
#375840
1-
#377575
14
#378335
05
#381706
0%
