Exercise6/simulation/qsim/Question1.msim.vcd
$comment
	File created using the following command:
		vcd file Question1.msim.vcd -direction
$end
$date
	Thu Apr 28 20:49:13 2022
$end
$version
	ModelSim Version 10.1d
$end
$timescale
	1ps
$end
$scope module Reg_vlg_vec_tst $end
$var reg 1 ! CLK $end
$var reg 4 " D_IN [3:0] $end
$var reg 1 # ENABLE $end
$var reg 1 $ RST $end
$var reg 1 % SI $end
$var reg 1 & SLOAD $end
$var wire 1 ' D_OUT [3] $end
$var wire 1 ( D_OUT [2] $end
$var wire 1 ) D_OUT [1] $end
$var wire 1 * D_OUT [0] $end
$var wire 1 + SO $end
$var wire 1 , sampler $end
$scope module i1 $end
$var wire 1 - gnd $end
$var wire 1 . vcc $end
$var wire 1 / unknown $end
$var tri1 1 0 devclrn $end
$var tri1 1 1 devpor $end
$var tri1 1 2 devoe $end
$var wire 1 3 CLK~combout $end
$var wire 1 4 CLK~clkctrl_outclk $end
$var wire 1 5 SLOAD~combout $end
$var wire 1 6 SI~combout $end
$var wire 1 7 F~3_combout $end
$var wire 1 8 RST~combout $end
$var wire 1 9 RST~clkctrl_outclk $end
$var wire 1 : ENABLE~combout $end
$var wire 1 ; F~2_combout $end
$var wire 1 < F~1_combout $end
$var wire 1 = F~0_combout $end
$var wire 1 > F [3] $end
$var wire 1 ? F [2] $end
$var wire 1 @ F [1] $end
$var wire 1 A F [0] $end
$var wire 1 B D_IN~combout [3] $end
$var wire 1 C D_IN~combout [2] $end
$var wire 1 D D_IN~combout [1] $end
$var wire 1 E D_IN~combout [0] $end
$upscope $end
$upscope $end
$enddefinitions $end
#0
$dumpvars
0!
b1101 "
1#
0$
0%
0&
0*
0)
0(
0'
0+
x,
0-
1.
x/
10
11
12
03
04
05
06
17
08
09
1:
1;
0<
1=
0A
0@
0?
0>
1E
0D
1C
1B
$end
#1048
1$
18
19
0,
#2096
0$
08
09
1,
#10000
1!
13
14
0,
1A
1?
1>
1*
1+
1(
1'
#20000
0!
03
04
1,
#30000
1!
13
14
0,
#40000
b101 "
b1 "
b0 "
1&
0!
0E
0C
0B
15
03
04
1,
0=
07
1<
#50000
1!
13
14
0,
0A
1@
0>
1=
0;
0*
0+
1)
0'
#60000
0!
03
04
1,
#70000
1!
13
14
0,
1A
0?
0<
1*
1+
0(
#80000
1%
0!
16
03
04
1,
17
#90000
1!
13
14
0,
0@
1>
0=
1;
0)
1'
#100000
0!
03
04
1,
#110000
1!
13
14
0,
0A
1?
1<
0*
0+
1(
#120000
0#
0&
0%
0!
0:
05
06
03
04
1,
0<
0;
07
#130000
1!
13
14
0,
#140000
0!
03
04
1,
#150000
1!
13
14
0,
#160000
1&
0!
15
03
04
1,
1<
1;
#170000
1!
13
14
0,
#180000
0!
03
04
1,
#190000
1!
13
14
0,
#200000
0&
0!
05
03
04
1,
0<
0;
#210000
1!
13
14
0,
#220000
0!
03
04
1,
#230000
1!
13
14
0,
