Exercise1/Question6/simulation/qsim/Question6.msim.vcd
$comment
	File created using the following command:
		vcd file Question6.msim.vcd -direction
$end
$date
	Thu Mar 10 21:22:05 2022
$end
$version
	ModelSim Version 10.1d
$end
$timescale
	1ps
$end
$scope module Question6_vlg_vec_tst $end
$var reg 1 ! CLK $end
$var reg 1 " CLRN $end
$var reg 1 # SET $end
$var reg 1 $ T $end
$var wire 1 % Q $end
$var wire 1 & sampler $end
$scope module i1 $end
$var wire 1 ' gnd $end
$var wire 1 ( vcc $end
$var wire 1 ) unknown $end
$var tri1 1 * devclrn $end
$var tri1 1 + devpor $end
$var tri1 1 , devoe $end
$var wire 1 - CLK~combout $end
$var wire 1 . SET~combout $end
$var wire 1 / CLRN~combout $end
$var wire 1 0 inst~1_combout $end
$var wire 1 1 T~combout $end
$var wire 1 2 inst~3_combout $end
$var wire 1 3 inst~0_combout $end
$var wire 1 4 inst~_emulated_regout $end
$var wire 1 5 inst~2_combout $end
$upscope $end
$upscope $end
$enddefinitions $end
#0
$dumpvars
0!
0"
1#
0$
x%
x&
0'
1(
x)
1*
1+
1,
0-
1.
0/
x0
01
x2
x3
x4
x5
$end
#218
04
#2079
05
#2218
00
#2219
13
#4754
02
#5168
0%
#5908
1"
0&
#6887
1/
#9106
03
#25000
1!
1&
#25832
1-
#50000
1$
0!
0&
#50832
0-
#50842
11
#55596
12
#75000
1!
1&
#75832
1-
#77253
14
#77702
15
#78112
02
#80791
1%
#100000
0$
0!
0&
#100832
0-
#100842
01
#105596
12
#125000
1!
1&
#125832
1-
#150000
1$
0!
0&
#150832
0-
#150842
11
#155596
02
#175000
1!
1&
#175832
1-
#177253
04
#177702
05
#178112
12
#180791
0%
#200000
0$
0!
0&
#200010
0#
1&
#200832
0-
#200842
01
#200989
0.
#203057
10
#203058
13
#203226
15
#205596
02
#206315
1%
#217916
1#
0&
#218895
1.
#220964
03
#225000
1!
1&
#225832
1-
#249869
0"
0&
#250000
1$
0!
1&
#250832
0-
#250842
11
#250848
0/
#252927
05
#253066
00
#253067
13
#254192
1"
0&
#255171
1/
#255596
12
#256016
0%
#257390
03
#275000
1!
1&
#275832
1-
#277253
14
#277702
15
#278112
02
#280791
1%
