Exercise5/Question4/simulation/qsim/Question4.msim.vcd
$comment
	File created using the following command:
		vcd file Question4.msim.vcd -direction
$end
$date
	Sun Apr 10 13:53:18 2022
$end
$version
	ModelSim Version 10.1d
$end
$timescale
	1ps
$end
$scope module Reg8_vlg_vec_tst $end
$var reg 1 ! CLK $end
$var reg 1 " CLR $end
$var reg 8 # DATA [7:0] $end
$var reg 1 $ SET $end
$var wire 1 % Q [7] $end
$var wire 1 & Q [6] $end
$var wire 1 ' Q [5] $end
$var wire 1 ( Q [4] $end
$var wire 1 ) Q [3] $end
$var wire 1 * Q [2] $end
$var wire 1 + Q [1] $end
$var wire 1 , Q [0] $end
$var wire 1 - sampler $end
$scope module i1 $end
$var wire 1 . gnd $end
$var wire 1 / vcc $end
$var wire 1 0 unknown $end
$var tri1 1 1 devclrn $end
$var tri1 1 2 devpor $end
$var tri1 1 3 devoe $end
$var wire 1 4 CLK~combout $end
$var wire 1 5 CLK~clkctrl_outclk $end
$var wire 1 6 SET~combout $end
$var wire 1 7 CLR~combout $end
$var wire 1 8 REG[7]~19_combout $end
$var wire 1 9 REG[0]~1_combout $end
$var wire 1 : REG[0]~3_combout $end
$var wire 1 ; REG[0]~0_combout $end
$var wire 1 < REG[0]~0clkctrl_outclk $end
$var wire 1 = REG[0]~_emulated_regout $end
$var wire 1 > REG[0]~2_combout $end
$var wire 1 ? REG[1]~5_combout $end
$var wire 1 @ REG[1]~_emulated_regout $end
$var wire 1 A REG[1]~4_combout $end
$var wire 1 B REG[2]~7_combout $end
$var wire 1 C REG[2]~_emulated_regout $end
$var wire 1 D REG[2]~6_combout $end
$var wire 1 E REG[3]~9_combout $end
$var wire 1 F REG[3]~_emulated_regout $end
$var wire 1 G REG[3]~8_combout $end
$var wire 1 H REG[4]~11_combout $end
$var wire 1 I REG[4]~_emulated_regout $end
$var wire 1 J REG[4]~10_combout $end
$var wire 1 K REG[5]~13_combout $end
$var wire 1 L REG[5]~_emulated_regout $end
$var wire 1 M REG[5]~12_combout $end
$var wire 1 N REG[6]~15_combout $end
$var wire 1 O REG[6]~_emulated_regout $end
$var wire 1 P REG[6]~14_combout $end
$var wire 1 Q REG[7]~17_combout $end
$var wire 1 R REG[7]~_emulated_regout $end
$var wire 1 S REG[7]~16_combout $end
$var wire 1 T DATA~combout [7] $end
$var wire 1 U DATA~combout [6] $end
$var wire 1 V DATA~combout [5] $end
$var wire 1 W DATA~combout [4] $end
$var wire 1 X DATA~combout [3] $end
$var wire 1 Y DATA~combout [2] $end
$var wire 1 Z DATA~combout [1] $end
$var wire 1 [ DATA~combout [0] $end
$upscope $end
$upscope $end
$enddefinitions $end
#0
$dumpvars
0!
1"
b10011110 #
0$
0,
0+
0*
0)
0(
0'
0&
0%
x-
0.
1/
x0
11
12
13
04
05
06
17
08
09
0:
1;
1<
0=
0>
1?
0@
0A
1B
0C
0D
1E
0F
0G
1H
0I
0J
0K
0L
0M
0N
0O
0P
1Q
0R
0S
0[
1Z
1Y
1X
1W
0V
0U
1T
$end
#2438
0"
07
0-
0;
0<
#10000
1!
14
15
1-
1R
1I
1F
1C
1@
1S
1J
1G
1D
1A
1%
1(
1)
1*
1+
#20000
b10111110 #
b10101110 #
b10101010 #
b10101011 #
0!
1[
0Y
0W
1V
04
05
0-
1:
0B
0H
1K
#30000
1!
14
15
1-
1L
0I
0C
1=
1M
0J
0D
1>
1'
0(
0*
1,
#40000
b101011 #
b100011 #
b100001 #
b1 #
b10001 #
0!
0Z
0X
1W
0V
0T
04
05
0-
0?
0E
1H
0K
0Q
#50000
1!
14
15
1-
0R
0L
1I
0F
0@
0S
0M
1J
0G
0A
0%
0'
1(
0)
0+
#60000
b10101 #
b10100 #
b110100 #
b100100 #
0!
0[
1Y
0W
1V
04
05
0-
0:
1B
0H
1K
#70000
1!
14
15
1-
1L
0I
1C
0=
1M
0J
1D
0>
1'
0(
1*
0,
#80000
b101100 #
b101110 #
b101010 #
b101011 #
b111011 #
0!
1[
1Z
0Y
1X
1W
04
05
0-
1:
1?
0B
1E
1H
#90000
1!
14
15
1-
1I
1F
0C
1@
1=
1J
1G
0D
1A
1>
1(
1)
0*
1+
1,
#100000
b10111011 #
0!
1T
04
05
0-
1Q
#110000
1!
14
15
1-
1R
1S
1%
#120000
b10111111 #
b10111110 #
b111110 #
0!
0[
1Y
0T
04
05
0-
0:
1B
0Q
#130000
1!
14
15
1-
0R
1C
0=
0S
1D
0>
0%
1*
0,
#140000
b1111110 #
b1011110 #
b1001110 #
b1001010 #
b1001011 #
0!
1[
0Y
0W
0V
1U
04
05
0-
1:
0B
0H
0K
1N
#150000
1!
14
15
1-
1O
0L
0I
0C
1=
1P
0M
0J
0D
1>
1&
0'
0(
0*
1,
#160000
b1011 #
b1111 #
0!
1Y
0U
04
05
0-
1B
0N
#170000
1!
14
15
1-
0O
1C
0P
1D
0&
1*
#180000
b1101 #
b1100 #
b1001100 #
0!
0[
0Z
1U
04
05
0-
0:
0?
1N
#190000
1!
14
15
1-
1O
0@
0=
1P
0A
0>
1&
0+
0,
