Exercise1/Question5/simulation/qsim/Question5.msim.vcd
$comment
	File created using the following command:
		vcd file Question5.msim.vcd -direction
$end
$date
	Thu Mar 10 22:50:41 2022
$end
$version
	ModelSim Version 10.1d
$end
$timescale
	1ps
$end
$scope module Question5_vlg_vec_tst $end
$var reg 1 ! CLK $end
$var reg 1 " CLRN $end
$var reg 1 # J $end
$var reg 1 $ K $end
$var reg 1 % SET $end
$var wire 1 & Q $end
$var wire 1 ' sampler $end
$scope module i1 $end
$var wire 1 ( gnd $end
$var wire 1 ) vcc $end
$var wire 1 * unknown $end
$var tri1 1 + devclrn $end
$var tri1 1 , devpor $end
$var tri1 1 - devoe $end
$var wire 1 . K~combout $end
$var wire 1 / CLK~combout $end
$var wire 1 0 CLRN~combout $end
$var wire 1 1 SET~combout $end
$var wire 1 2 inst~1_combout $end
$var wire 1 3 J~combout $end
$var wire 1 4 inst~3_combout $end
$var wire 1 5 inst~0_combout $end
$var wire 1 6 inst~_emulated_regout $end
$var wire 1 7 inst~2_combout $end
$upscope $end
$upscope $end
$enddefinitions $end
#0
$dumpvars
0!
0"
0#
0$
1%
x&
x'
0(
1)
x*
1+
1,
1-
0.
0/
00
11
x2
03
x4
x5
x6
x7
$end
#218
06
#1035
15
#1341
02
#1346
07
#4681
0&
#5048
04
#25000
1!
1"
0'
#25870
1/
#25979
10
#27014
05
#50000
1$
0!
1'
#50820
1.
#50870
0/
#75000
1!
0'
#75870
1/
#100000
1#
0$
0!
1'
#100820
0.
#100870
0/
#100880
13
#105928
14
#125000
1!
0'
#125870
1/
#127604
16
#128054
17
#131389
1&
#150000
1$
0!
1'
#150820
1.
#150870
0/
#156086
04
#175000
1!
0'
#175870
1/
#177604
06
#178054
07
#178466
14
#181389
0&
#200000
0%
0#
0$
0!
1'
#200820
0.
#200870
0/
#200880
03
#200979
01
#202124
17
#202128
15
#202129
12
#205459
1&
#206086
04
#208638
1%
0'
#209617
11
#210766
05
#225000
1!
1'
#225870
1/
#250000
1$
0!
0'
#250820
1.
#250870
0/
#256086
14
#275000
1!
1'
#275870
1/
#277604
16
#278054
07
#281389
0&
#300000
1#
0$
0!
0'
#300820
0.
#300870
0/
#300880
13
#305928
04
#325000
1!
1'
#325870
1/
#327604
06
#328054
17
#331389
1&
#350000
0"
1$
0!
0'
#350820
1.
#350870
0/
#350979
00
#352014
15
#352320
02
#352325
07
#353001
14
#355660
0&
#358628
1"
1'
#359607
10
#360642
05
#375000
1!
0'
#375870
1/
#377604
16
#378054
17
#378466
04
#381389
1&
#400000
0#
0$
0!
1'
#400820
0.
#400870
0/
#400880
03
#406086
14
#425000
1!
0'
#425870
1/
