Exercise2/Question2/simulation/qsim/Question2.msim.vcd
$comment
	File created using the following command:
		vcd file Question2.msim.vcd -direction
$end
$date
	Sun Mar 20 11:19:42 2022
$end
$version
	ModelSim Version 10.1d
$end
$timescale
	1ps
$end
$scope module accumulator_vlg_vec_tst $end
$var reg 1 ! clk $end
$var reg 1 " E $end
$var reg 4 # I [3:0] $end
$var reg 1 $ reset $end
$var wire 1 % Hex6 [6] $end
$var wire 1 & Hex6 [5] $end
$var wire 1 ' Hex6 [4] $end
$var wire 1 ( Hex6 [3] $end
$var wire 1 ) Hex6 [2] $end
$var wire 1 * Hex6 [1] $end
$var wire 1 + Hex6 [0] $end
$var wire 1 , Hex7 [6] $end
$var wire 1 - Hex7 [5] $end
$var wire 1 . Hex7 [4] $end
$var wire 1 / Hex7 [3] $end
$var wire 1 0 Hex7 [2] $end
$var wire 1 1 Hex7 [1] $end
$var wire 1 2 Hex7 [0] $end
$var wire 1 3 R [7] $end
$var wire 1 4 R [6] $end
$var wire 1 5 R [5] $end
$var wire 1 6 R [4] $end
$var wire 1 7 R [3] $end
$var wire 1 8 R [2] $end
$var wire 1 9 R [1] $end
$var wire 1 : R [0] $end
$var wire 1 ; sampler $end
$scope module i1 $end
$var wire 1 < gnd $end
$var wire 1 = vcc $end
$var wire 1 > unknown $end
$var tri1 1 ? devclrn $end
$var tri1 1 @ devpor $end
$var tri1 1 A devoe $end
$var wire 1 B inst1|inst|inst6~0_combout $end
$var wire 1 C clk~combout $end
$var wire 1 D inst1|inst|inst1~0_combout $end
$var wire 1 E reset~combout $end
$var wire 1 F E~combout $end
$var wire 1 G inst1|inst2|inst1~combout $end
$var wire 1 H inst1|inst2|inst6~0_combout $end
$var wire 1 I inst1|inst3|inst1~0_combout $end
$var wire 1 J inst1|inst4|inst1~0_combout $end
$var wire 1 K inst11|WideOr0~0_combout $end
$var wire 1 L inst11|WideOr1~0_combout $end
$var wire 1 M inst11|WideOr2~0_combout $end
$var wire 1 N inst11|WideOr3~0_combout $end
$var wire 1 O inst11|WideOr4~0_combout $end
$var wire 1 P inst11|WideOr5~0_combout $end
$var wire 1 Q inst11|WideOr6~0_combout $end
$var wire 1 R clk~clk_delay_ctrl_clkout $end
$var wire 1 S clk~clkctrl_outclk $end
$var wire 1 T inst1|inst3|inst6~0_combout $end
$var wire 1 U inst1|inst4|inst6~0_combout $end
$var wire 1 V inst1|inst5|inst1~0_combout $end
$var wire 1 W inst1|inst7|inst1~0_combout $end
$var wire 1 X inst1|inst7|inst1~1_combout $end
$var wire 1 Y inst1|inst8|inst1~0_combout $end
$var wire 1 Z inst1|inst8|inst1~combout $end
$var wire 1 [ inst1|inst6|inst1~combout $end
$var wire 1 \ inst10|WideOr0~0_combout $end
$var wire 1 ] inst10|WideOr1~0_combout $end
$var wire 1 ^ inst10|WideOr2~0_combout $end
$var wire 1 _ inst10|WideOr3~0_combout $end
$var wire 1 ` inst10|WideOr4~0_combout $end
$var wire 1 a inst10|WideOr5~0_combout $end
$var wire 1 b inst10|WideOr6~0_combout $end
$var wire 1 c inst|dffs [7] $end
$var wire 1 d inst|dffs [6] $end
$var wire 1 e inst|dffs [5] $end
$var wire 1 f inst|dffs [4] $end
$var wire 1 g inst|dffs [3] $end
$var wire 1 h inst|dffs [2] $end
$var wire 1 i inst|dffs [1] $end
$var wire 1 j inst|dffs [0] $end
$var wire 1 k I~combout [3] $end
$var wire 1 l I~combout [2] $end
$var wire 1 m I~combout [1] $end
$var wire 1 n I~combout [0] $end
$upscope $end
$upscope $end
$enddefinitions $end
#0
$dumpvars
0!
0"
b0 #
1$
x+
x*
x)
x(
x'
x&
x%
x2
x1
x0
x/
x.
x-
x,
x:
x9
x8
x7
x6
x5
x4
x3
x;
0<
1=
x>
1?
1@
1A
xB
0C
xD
1E
0F
xG
xH
xI
xJ
xK
xL
xM
xN
xO
xP
xQ
xR
xS
xT
xU
xV
xW
xX
xY
xZ
x[
x\
x]
x^
x_
x`
xa
xb
xj
xi
xh
xg
xf
xe
xd
xc
0n
0m
0l
0k
$end
#196
0R
0S
#218
0j
0i
0h
0g
0f
0d
0c
0e
#1791
1Y
#1806
1W
#1937
0[
#1942
0U
#1947
0B
#2365
0V
#2454
0Z
#2489
0X
#2524
0D
#2535
0G
#2664
0H
#2808
0Q
0P
#2811
0M
#2829
0K
#2892
0O
#2894
0N
0L
#2914
0T
#3075
0I
#3287
0`
#3634
0J
#3638
0\
#3653
0a
#4195
0_
#4208
0b
0]
#4211
0^
#4944
07
#5087
0:
#5231
09
#5391
08
#5899
0+
#5902
0*
#5986
0)
#6154
05
#6258
04
#6325
03
#6444
1%
#6450
0'
#6530
0&
#6545
0(
#6548
00
#6721
06
#6931
1,
#6955
01
#7457
0/
#7472
0.
#7499
02
#7782
0-
#10000
1!
0;
#10842
1C
#11038
1R
1S
#20000
0$
0!
1;
#20842
0C
#20852
0E
#21038
0R
0S
#30000
1!
0;
#30842
1C
#31038
1R
1S
#40000
b1 #
0!
1;
#40842
0C
#40999
1n
#41038
0R
0S
#43523
1D
#50000
1!
0;
#50842
1C
#51038
1R
1S
#52812
1j
#53135
0D
#53411
1B
#54132
1G
#55401
1N
#55402
1Q
#55403
1L
#55405
1M
#57681
1:
#58493
1+
#59039
1&
#59044
1'
#59052
1(
#60000
b11 #
b10 #
0!
1;
#60842
0C
#60999
1m
0n
#61038
0R
0S
#63523
1D
#63524
0B
#63531
1H
#63534
0G
#63942
1I
#64241
0H
#64245
1G
#64652
0I
#70000
1!
0;
#70842
1C
#71038
1R
1S
#72812
1i
#73135
0G
#73562
1H
#73973
1I
#75458
0Q
#75488
0N
1K
#77825
19
#78549
0+
#79103
0%
#79139
0(
#80000
b110 #
b100 #
0!
1;
#80842
0C
#80999
1l
0m
#81038
0R
0S
#83531
0H
#83534
1G
#90000
1!
0;
#90842
1C
#91038
1R
1S
#92812
1h
#93135
0I
#93561
1T
#94281
1J
#95060
0K
#95064
1N
#97985
18
#98675
1%
#98715
1(
#100000
b1100 #
b1000 #
0!
1;
#100842
0C
#100999
1k
0l
#101038
0R
0S
#102606
0J
#102608
1U
#103031
1V
#103913
1I
0T
#104455
0U
#104633
1J
#104878
0V
#110000
1!
0;
#110842
1C
#111038
1R
1S
#112812
1g
#113135
0J
#113596
1U
#114019
1V
#115422
0L
#115423
0M
1K
#115427
1P
1O
#117538
17
#118521
1*
1)
#119038
0%
#119058
0&
#119062
0'
#120000
b1001 #
b1101 #
0!
1;
#120842
0C
#120999
1l
1n
#121038
0R
0S
#123523
0D
#123524
1B
#123913
0I
1T
#124241
1H
#124245
0G
#124633
1J
#124652
1I
#130000
1!
0;
#130842
1C
#131038
1R
1S
#132812
0j
0i
1f
#133135
0V
1G
1D
#133292
1[
#133411
0B
#133562
0H
#133973
0I
#134132
0G
#135401
0N
#135488
0K
#136789
1_
#136802
1b
1]
#136805
1^
#137681
0:
#137825
09
#139052
0(
#139103
1%
#139315
16
#140000
1"
b1111 #
0!
1;
#140051
1/
#140066
1.
#140093
12
#140376
1-
#140842
0C
#140999
1m
1F
#141038
0R
0S
#142805
0T
#142931
0J
#142932
1G
#142936
0[
#142940
1I
#142944
1V
#143347
0U
#143525
1J
#143534
0G
#143770
0V
#150000
1!
0;
#150842
1C
#151038
1R
1S
#152812
1j
0f
#153135
1V
0D
#153292
1[
#153411
1B
#153563
0W
#153568
0Y
#154132
1G
#154231
1Z
#154246
1X
#155375
0O
#155402
1Q
0P
#155403
1L
1K
#156789
0_
#156802
0b
0]
#156805
0^
#157681
1:
#158469
0)
#158493
1+
#158496
0*
#159018
0%
#159039
1&
#159315
06
#160000
b1110 #
0"
0!
1;
#160051
0/
#160066
0.
#160093
02
#160376
0-
#160842
0C
#160999
0F
0n
#161038
0R
0S
#162790
1Y
#162802
1H
#162805
1T
1W
#162931
0J
#162932
0G
#162936
0[
#162940
0I
#162941
1U
#162944
0V
#163213
1I
#163364
1V
#163453
0Z
#163488
0X
#163523
1D
#163524
0B
#163525
1J
#164241
0H
#164245
1G
#164652
0I
#170000
1!
0;
#170842
1C
#171038
1R
1S
#172812
1i
0h
1f
#173135
0V
1I
0G
#173292
1[
#173561
0T
#173562
1H
#173973
0I
#173974
1T
#175060
1M
0L
#175064
1N
#175065
0Q
#175458
1Q
#175485
1P
#175488
0N
#175489
0M
#176789
1_
#176802
1b
1]
#176805
1^
#177825
19
#177985
08
#178579
1*
#178696
0&
#179315
16
#180000
b110 #
b111 #
0!
1;
#180051
1/
#180066
1.
#180093
12
#180376
1-
#180842
0C
#180999
0k
1n
#181038
0R
0S
#182606
0J
#183523
0D
#183524
1B
#184245
1G
#190000
1!
0;
#190842
1C
#191038
1R
1S
#192812
0j
0g
0f
1e
#193135
0[
1V
1J
1D
#193292
1[
#193411
0B
#193596
0U
#194019
0V
#194132
0G
#195402
0Q
0P
#195422
1L
#195427
1O
#195807
1\
#195815
0_
#195827
0b
#196777
1`
#196805
0^
#197538
07
#197681
0:
#198493
0+
#198496
0*
#198521
1)
#198748
15
#199058
1&
#199077
0/
#199100
0,
#199118
02
#199315
06
#200000
b1111 #
0!
1;
#200038
10
#200066
0.
#200842
0C
#200999
1k
#201038
0R
0S
#202606
0J
#202608
1U
#203031
1V
#210000
1!
0;
#210842
1C
#211038
1R
1S
#212812
1j
0i
1f
#213135
0V
1G
0D
#213292
0[
#213411
1B
#213562
0H
#213563
0W
#213973
1I
#213974
0T
#214128
1H
#214132
0G
#214246
1X
#214516
0U
#214539
0I
#214540
1T
#214694
1J
#214938
0X
#214939
1V
#215082
1U
#215260
0J
#215374
1[
#215375
0O
#215405
1M
#215458
1Q
#215488
1N
0K
#215504
1X
#215505
0V
#215940
0[
#216777
0`
#216805
1^
#217681
1:
#217825
09
#218469
0)
#218549
1+
#219044
1'
#219103
1%
#219139
1(
#219315
16
#220000
b1101 #
0!
1;
#220038
00
#220066
1.
#220842
0C
#220999
0m
#221038
0R
0S
#223531
0H
#223534
1G
#223942
1I
#223943
0T
#224485
0U
#224663
1J
#224907
0X
#224908
1V
#225343
1[
#230000
1!
0;
#230842
1C
#231038
1R
1S
#232812
0j
1i
1h
1g
#233135
0J
0I
0G
1D
#233411
0B
#233561
1T
#233562
1H
#233596
1U
#233973
1I
#234018
1X
#234019
0V
#234128
0H
#234132
1G
#234281
1J
#234454
0[
#234539
0I
#235060
0L
1K
#235427
1O
#235458
0Q
#235485
1P
#235488
0N
#235489
0M
#237538
17
#237681
0:
#237825
19
#237985
18
#238521
1)
#238549
0+
#238579
1*
#238675
0%
#238696
0&
#239128
0'
#239139
0(
#240000
0!
1;
#240842
0C
#241038
0R
0S
#250000
1!
0;
#250842
1C
#251038
1R
1S
#252812
1j
0h
0f
1d
0e
#253135
1[
0X
1V
1I
0D
#253292
0[
#253411
1B
#253561
0T
#253563
1W
#253606
1X
#254128
1H
#254132
0G
#254281
0J
#254539
0I
#254540
1T
#255065
0O
#255260
1J
#255402
1Q
#255807
0\
#256232
1\
#256242
0]
#256247
1a
#256789
1_
#256802
1b
#256803
0a
#257681
1:
#257985
08
#258159
0)
#258493
1+
#258748
05
#258852
14
#259315
06
#259816
0-
#260000
1"
b1111 #
0!
1;
#260051
1/
#260093
12
#260842
0C
#260999
1m
1F
#261038
0R
0S
#262805
0T
0W
#262931
0J
#262932
1G
#262940
1I
#262944
0V
#263347
0U
#263525
1J
#263534
0G
#263769
0X
#263770
1V
#264205
1[
#270000
1!
0;
#270842
1C
#271038
1R
1S
#272812
0j
0i
1h
1f
0d
1e
#273135
0[
1X
0V
0I
1G
1D
#273292
1[
#273411
0B
#273561
1T
#273562
0H
#273563
1W
#273606
0X
#273973
1I
#273974
0T
#274103
1U
#274132
0G
#274516
0U
#274526
1V
#274939
0V
#275065
0Q
1O
#275488
0K
#275815
0_
#275827
0b
#275830
0^
#276220
1`
#276242
1]
#276777
0`
#276805
1^
#277681
0:
#277825
09
#277985
18
#278156
0+
#278159
1)
#278748
15
#278852
04
#279077
0/
#279103
1%
#279118
02
#279315
16
#279816
1-
#280000
0!
1;
#280842
0C
#281038
0R
0S
#290000
1!
0;
#290842
1C
#291038
1R
1S
#292812
1j
0f
#293135
1V
0D
#293292
0[
#293411
1B
#294132
1G
#295375
0O
#295402
1Q
0P
#295403
1L
1K
#296777
1`
#296805
0^
#297681
1:
#298469
0)
#298493
1+
#298496
0*
#299018
0%
#299039
1&
#299315
06
#300000
b1110 #
0"
0!
1;
#300038
10
#300066
0.
#300842
0C
#300999
0F
0n
#301038
0R
0S
#302802
1H
#302805
1T
#302931
0J
#302932
0G
#302936
1[
#302940
0I
#302941
1U
#302944
0V
#303213
1I
#303364
1V
#303523
1D
#303524
0B
#303525
1J
#304241
0H
#304245
1G
#304652
0I
#310000
1!
0;
#310842
1C
#311038
1R
1S
#312812
1i
0h
1f
#313135
0V
1I
0G
#313292
0[
#313561
0T
#313562
1H
#313563
0W
#313973
0I
#313974
1T
#314246
1X
#315060
1M
0L
#315064
1N
#315065
0Q
#315458
1Q
#315485
1P
#315488
0N
#315489
0M
#316777
0`
#316805
1^
#317825
19
#317985
08
#318579
1*
#318696
0&
#319315
16
#320000
0!
1;
#320038
00
#320066
1.
#320842
0C
#321038
0R
0S
#330000
1!
0;
#330842
1C
#331038
1R
1S
#332812
0i
0f
1d
0e
#333135
1[
0X
1V
1G
#333292
0[
#333562
0H
#333563
1W
#333606
1X
#333973
1I
#333974
0T
#334694
0J
#335458
0Q
#335485
0P
#335488
1N
#335489
1M
#335807
0\
#336232
1\
#336242
0]
#336247
1a
#336789
1_
#336802
1b
#336803
0a
#337825
09
#338549
0+
#338579
0*
#338748
05
#338852
14
#339128
1'
#339139
1(
#339315
06
#339816
0-
#340000
b1111 #
0!
1;
#340051
1/
#340093
12
#340842
0C
#340999
1n
#341038
0R
0S
#343523
0D
#343524
1B
#344241
1H
#344245
0G
#344652
0I
#344653
1T
#345373
1J
#350000
1!
0;
#350842
1C
#351038
1R
1S
#352812
0j
1f
#353135
0V
1D
#353292
1[
#353411
0B
#354128
0H
#354132
1G
#354539
1I
#354540
0T
#355260
0J
#355401
0N
#355405
0M
#356789
0_
#356802
0b
#356803
1a
#357681
0:
#359044
0'
#359052
0(
#359315
16
#360000
0!
1;
#360051
0/
#360093
02
#360105
11
#360842
0C
#361038
0R
0S
#370000
1!
0;
#370842
1C
#371038
1R
1S
#372812
1j
1i
1h
0g
0f
1e
#373135
0[
1V
1J
0I
0G
0D
#373292
1[
#373411
1B
#373561
1T
#373562
1H
#373596
0U
#373973
1I
#374019
0V
#374103
1U
#374132
1G
#374281
0J
#374526
1V
#375422
1L
#375423
1M
0K
#375488
1N
#375807
0\
#375815
1_
#375827
1]
#375830
0a
#376785
1\
#376789
0_
#376802
0]
#376803
1a
#376805
0^
#377538
07
#377681
1:
#377825
19
#377985
18
#378748
15
#379038
1%
#379058
1&
#379062
1'
#379139
1(
#379315
06
#380000
0!
1;
#380066
0.
#380842
0C
#381038
0R
0S
#390000
1!
0;
#390842
1C
#391038
1R
1S
#392812
0j
1f
#393135
0V
1D
#393292
0[
#393411
0B
#393563
0W
#393568
0Y
#394132
0G
#394231
1Z
#394246
0X
#395401
0N
#395402
1P
#395403
0L
1K
#395405
0M
#396785
0\
#396789
1_
#396802
1]
#396803
0a
#396805
1^
#397681
0:
#398496
1*
#399018
0%
#399039
0&
#399044
0'
#399052
0(
#399315
16
#400000
0!
1;
#400051
1/
#400066
1.
#400078
1,
#400105
01
#400376
1-
#400842
0C
#401038
0R
0S
#410000
1!
0;
#410842
1C
#411038
1R
1S
#412812
1j
0i
0f
0d
1c
0e
#413135
1[
0Z
1X
1V
1G
0D
#413286
1Y
#413292
0[
#413411
1B
#413562
0H
#413563
1W
#413606
0X
#413607
1Z
#413973
0I
#414128
1H
#414132
0G
#414539
1I
#415405
1M
#415807
1\
#416242
0]
#416789
0_
#416805
0^
#417681
1:
#417825
09
#418748
05
#418852
04
#418919
13
#419044
1'
#419100
0,
#419315
06
#419816
0-
#420000
1"
0!
1;
#420051
0/
#420066
0.
#420842
0C
#420999
1F
#421038
0R
0S
#422790
0Y
#422802
0H
#422805
0W
#422931
1J
#422932
1G
#422940
0I
#422941
0U
#422944
0V
#423213
1I
#423214
0T
#423363
1X
#423364
1V
0Z
#423799
1[
#423934
0J
#430000
1!
0;
#430842
1C
#431038
1R
1S
#432812
0j
1i
1f
1d
0c
1e
#433135
0[
1Z
0X
0V
0G
1D
#433286
1Y
#433292
1[
#433411
0B
#433562
1H
#433563
1W
#433606
1X
#433607
0Z
#433973
0I
#433974
1T
#434128
0H
#434132
1G
#434539
1I
#434540
0T
#434694
1J
#435260
0J
#435489
0M
#436247
1a
#436785
0\
#436789
1_
#436802
1]
#436803
0a
#436805
1^
#437681
0:
#437825
19
#438748
15
#438852
14
#438919
03
#439128
0'
#439315
16
#440000
0!
1;
#440051
1/
#440066
1.
#440078
1,
#440376
1-
#440842
0C
#441038
0R
0S
#450000
1!
0;
#450842
1C
#451038
1R
1S
#452812
1j
0f
#453135
1V
0D
#453292
0[
#453411
1B
#454128
1H
#454132
0G
#454539
0I
#454540
1T
#455260
1J
#455401
1N
#455402
0P
#455403
1L
0K
#455405
1M
#456785
1\
#456789
0_
#456802
0]
#456803
1a
#456805
0^
#457681
1:
#458496
0*
#459018
1%
#459039
1&
#459044
1'
#459052
1(
#459315
06
#460000
b1011 #
b11 #
0"
0!
1;
#460051
0/
#460066
0.
#460078
0,
#460105
11
#460376
0-
#460842
0C
#460999
0F
0k
0l
#461038
0R
0S
#462932
1G
#462936
1[
#462940
1I
#462944
0V
#463913
0I
#470000
1!
0;
#470842
1C
#471038
1R
1S
#472812
0j
0h
1g
#473135
0J
1I
1D
#473411
0B
#473561
0T
#473596
1U
#474019
1V
#474103
0U
#474132
0G
#474281
1J
#474526
0V
#475060
1K
#475064
0N
#475405
0M
#475422
0L
#475425
1N
#477538
17
#477681
0:
#477985
08
#478675
0%
#479044
0'
#479058
0&
#480000
b111 #
0!
1;
#480842
0C
#480999
1l
#481038
0R
0S
#483913
0I
1T
#484455
1U
#484633
0J
#484878
1V
#490000
1!
0;
#490842
1C
#491038
1R
1S
#492812
1j
0i
0g
1f
#493135
0V
1J
1G
0D
#493292
0[
#493411
1B
#493562
0H
#493563
0W
#493568
0Y
#493596
0U
#493973
1I
#493974
0T
#494019
1V
#494128
1H
#494132
0G
#494454
1[
#494539
0I
#494540
1T
#494694
0J
#495260
1J
#495422
1L
#495423
0K
#495426
1Q
#495489
1M
#496785
0\
#496789
1_
#496802
1]
#496803
0a
#496805
1^
#497538
07
#497681
1:
#497825
09
#498517
1+
#499038
1%
#499058
1&
#499128
1'
#499315
16
#500000
b1111 #
0!
1;
#500051
1/
#500066
1.
#500078
1,
#500105
01
#500376
1-
#500842
0C
#500999
1k
#501038
0R
0S
#502606
0J
#502608
1U
#503030
0X
#503031
0V
1Z
#503466
0[
#510000
1!
0;
#510842
1C
#511038
1R
1S
#512812
0j
0f
0d
1c
0e
#513135
1[
0Z
1X
1V
1D
#513286
1Y
#513292
0[
#513411
0B
#513563
1W
#513606
0X
#513607
1Z
#514128
0H
#514132
1G
#514539
1I
#514540
0T
#515082
0U
#515260
1J
#515401
0N
#515402
0Q
#515403
0L
#515405
0M
#515505
0V
#515807
1\
#516242
0]
#516789
0_
#516805
0^
#517681
0:
#518493
0+
#518748
05
#518852
04
#518919
13
#519039
0&
#519044
0'
#519052
0(
#519100
0,
#519315
06
#519816
0-
#520000
1$
b1101 #
b1100 #
b1000 #
b0 #
0!
1;
#520051
0/
#520066
0.
#520842
0C
#520852
1E
#520999
0k
0l
0m
0n
#521038
0R
0S
#522606
0J
#523523
0D
#523534
0G
#523913
0I
#526802
0c
#527125
0Z
#529862
0\
#530000
1!
0;
#530842
1C
#531038
1R
1S
#532909
03
#533155
1,
#540000
1"
0$
b10 #
b11 #
b111 #
b1111 #
0!
1;
#540842
0C
#540852
0E
#540999
1k
1l
1m
1n
1F
#541038
0R
0S
#542790
0Y
#542805
0W
#542932
1G
#542936
1[
#542940
1I
#542944
1V
#542946
1B
#543453
1Z
#543488
1X
#543523
1D
#543524
0B
#543913
0I
#544245
0G
#550000
1!
0;
#550842
1C
#551038
1R
1S
#552812
1j
1f
1d
1c
1e
#553135
0[
0Z
0X
0V
0D
#553286
1Y
#553292
1[
#553411
1B
#553563
1W
#553606
1X
#553607
1Z
#554132
1G
#555401
1N
#555402
1Q
#555403
1L
#555405
1M
#555807
1\
#556220
1`
#556247
1a
#556789
1_
#557681
1:
#558493
1+
#558748
15
#558852
14
#558919
13
#559039
1&
#559044
1'
#559052
1(
#559100
0,
#559315
16
#559481
10
#559549
11
#560000
0"
b1101 #
b1100 #
b1000 #
b0 #
0!
1;
#560051
1/
#560842
0C
#560999
0k
0l
0m
0n
0F
#561038
0R
0S
#562790
0Y
#562802
1H
#562805
0W
#562932
0G
#562940
1I
#562944
1V
#563213
0I
#563214
1T
#563523
1D
#563524
0B
#563531
0H
#563534
1G
#563913
0T
#563934
1J
#564245
0G
#564633
0J
#570000
1!
0;
#570842
1C
