Exercise5/Question3/simulation/qsim/Question3.msim.vcd
$comment
	File created using the following command:
		vcd file Question3.msim.vcd -direction
$end
$date
	Thu Apr 28 21:33:11 2022
$end
$version
	ModelSim Version 10.1d
$end
$timescale
	1ps
$end
$scope module D_FF_test_vlg_vec_tst $end
$var reg 1 ! CLK $end
$var reg 1 " CLR $end
$var reg 1 # D $end
$var reg 1 $ SET $end
$var wire 1 % LQ $end
$var wire 1 & LQn $end
$var wire 1 ' Q $end
$var wire 1 ( Qn $end
$var wire 1 ) sampler $end
$scope module i1 $end
$var wire 1 * gnd $end
$var wire 1 + vcc $end
$var wire 1 , unknown $end
$var tri1 1 - devclrn $end
$var tri1 1 . devpor $end
$var tri1 1 / devoe $end
$var wire 1 0 CLR~combout $end
$var wire 1 1 SET~combout $end
$var wire 1 2 inst|DFF~1_combout $end
$var wire 1 3 D~combout $end
$var wire 1 4 inst|DFF~3_combout $end
$var wire 1 5 inst|DFF~0_combout $end
$var wire 1 6 inst|DFF~_emulated_regout $end
$var wire 1 7 inst|DFF~2_combout $end
$var wire 1 8 CLK~combout $end
$var wire 1 9 CLK~clkctrl_outclk $end
$var wire 1 : inst1|FF~0_combout $end
$var wire 1 ; inst1|FF~combout $end
$upscope $end
$upscope $end
$enddefinitions $end
#0
$dumpvars
0!
1"
0#
0$
x%
x&
x'
x(
x)
0*
1+
x,
1-
1.
1/
10
01
x2
03
x4
x5
x6
x7
08
x9
x:
x;
$end
#118
09
#218
06
#536
0"
0)
#828
15
#830
07
0;
#1060
02
#1515
00
#1770
0:
#2343
05
#4186
0'
1(
#4428
0%
#4448
1&
#5100
04
#10000
1"
1)
#10979
10
#11807
15
#20000
1!
0)
#20999
18
#21117
19
#40000
1#
0"
0!
1)
#40850
13
#40979
00
#40999
08
#41117
09
#41807
05
#45950
14
#60000
1!
0)
#60999
18
#61117
19
#62769
1:
#62966
16
#63486
1;
#63552
17
#65794
0#
1)
#66644
03
#66908
1'
0(
#67084
1%
#67104
0&
#71744
04
#71919
0:
#72636
0;
#76234
0%
#76254
1&
#80000
0!
0)
#80999
08
#81117
09
#100000
1!
1)
#100999
18
#101117
19
#102966
06
#103552
07
#106908
0'
1(
