Exercise5/Question5/simulation/qsim/Question5.msim.vcd
$comment
	File created using the following command:
		vcd file Question5.msim.vcd -direction
$end
$date
	Sun Apr 10 14:39:25 2022
$end
$version
	ModelSim Version 10.1d
$end
$timescale
	1ps
$end
$scope module Question5_vlg_vec_tst $end
$var reg 1 ! CLK $end
$var reg 1 " CLR $end
$var reg 1 # EN $end
$var reg 1 $ SET $end
$var wire 1 % HEX1 [6] $end
$var wire 1 & HEX1 [5] $end
$var wire 1 ' HEX1 [4] $end
$var wire 1 ( HEX1 [3] $end
$var wire 1 ) HEX1 [2] $end
$var wire 1 * HEX1 [1] $end
$var wire 1 + HEX1 [0] $end
$var wire 1 , HEX2 [6] $end
$var wire 1 - HEX2 [5] $end
$var wire 1 . HEX2 [4] $end
$var wire 1 / HEX2 [3] $end
$var wire 1 0 HEX2 [2] $end
$var wire 1 1 HEX2 [1] $end
$var wire 1 2 HEX2 [0] $end
$var wire 1 3 Q [7] $end
$var wire 1 4 Q [6] $end
$var wire 1 5 Q [5] $end
$var wire 1 6 Q [4] $end
$var wire 1 7 Q [3] $end
$var wire 1 8 Q [2] $end
$var wire 1 9 Q [1] $end
$var wire 1 : Q [0] $end
$var wire 1 ; sampler $end
$scope module i1 $end
$var wire 1 < gnd $end
$var wire 1 = vcc $end
$var wire 1 > unknown $end
$var tri1 1 ? devclrn $end
$var tri1 1 @ devpor $end
$var tri1 1 A devoe $end
$var wire 1 B CLK~combout $end
$var wire 1 C CLK~clk_delay_ctrl_clkout $end
$var wire 1 D CLK~clkctrl_outclk $end
$var wire 1 E CLR~combout $end
$var wire 1 F SET~combout $end
$var wire 1 G inst|REG[7]~27_combout $end
$var wire 1 H inst|REG[4]~1_combout $end
$var wire 1 I inst|REG[0]~17_combout $end
$var wire 1 J inst|REG[4]~0_combout $end
$var wire 1 K inst|REG[4]~0clkctrl_outclk $end
$var wire 1 L EN~combout $end
$var wire 1 M inst|REG[0]~_emulated_regout $end
$var wire 1 N inst|REG[0]~16_combout $end
$var wire 1 O inst|Add0~1 $end
$var wire 1 P inst|Add0~2_combout $end
$var wire 1 Q inst|REG[2]~13_combout $end
$var wire 1 R inst|REG[2]~_emulated_regout $end
$var wire 1 S inst|REG[2]~12_combout $end
$var wire 1 T inst|Add0~3 $end
$var wire 1 U inst|Add0~4_combout $end
$var wire 1 V inst|REG[3]~11_combout $end
$var wire 1 W inst|REG[3]~_emulated_regout $end
$var wire 1 X inst|REG[3]~10_combout $end
$var wire 1 Y inst|Add0~5 $end
$var wire 1 Z inst|Add0~6_combout $end
$var wire 1 [ inst|REG[4]~3_combout $end
$var wire 1 \ inst|REG[4]~_emulated_regout $end
$var wire 1 ] inst|REG[4]~2_combout $end
$var wire 1 ^ inst|Add0~7 $end
$var wire 1 _ inst|Add0~8_combout $end
$var wire 1 ` inst|REG[5]~5_combout $end
$var wire 1 a inst|REG[5]~_emulated_regout $end
$var wire 1 b inst|REG[5]~4_combout $end
$var wire 1 c inst|Add0~9 $end
$var wire 1 d inst|Add0~10_combout $end
$var wire 1 e inst|REG[6]~7_combout $end
$var wire 1 f inst|REG[6]~_emulated_regout $end
$var wire 1 g inst|REG[6]~6_combout $end
$var wire 1 h inst|Add0~11 $end
$var wire 1 i inst|Add0~12_combout $end
$var wire 1 j inst|REG[7]~9_combout $end
$var wire 1 k inst|REG[7]~_emulated_regout $end
$var wire 1 l inst|REG[7]~8_combout $end
$var wire 1 m inst1|WideOr0~0_combout $end
$var wire 1 n inst1|WideOr1~0_combout $end
$var wire 1 o inst1|WideOr2~0_combout $end
$var wire 1 p inst1|WideOr3~0_combout $end
$var wire 1 q inst1|WideOr4~0_combout $end
$var wire 1 r inst1|WideOr5~0_combout $end
$var wire 1 s inst1|WideOr6~0_combout $end
$var wire 1 t inst|Add0~0_combout $end
$var wire 1 u inst|REG[1]~15_combout $end
$var wire 1 v inst|REG[1]~_emulated_regout $end
$var wire 1 w inst|REG[1]~14_combout $end
$var wire 1 x inst2|WideOr0~0_combout $end
$var wire 1 y inst2|WideOr1~0_combout $end
$var wire 1 z inst2|WideOr2~0_combout $end
$var wire 1 { inst2|WideOr3~0_combout $end
$var wire 1 | inst2|WideOr4~0_combout $end
$var wire 1 } inst2|WideOr5~0_combout $end
$var wire 1 ~ inst2|WideOr6~0_combout $end
$upscope $end
$upscope $end
$enddefinitions $end
#0
$dumpvars
0!
1"
1#
0$
x+
x*
x)
x(
x'
x&
x%
x2
x1
x0
x/
x.
x-
x,
x:
x9
x8
x7
x6
x5
x4
x3
x;
0<
1=
x>
1?
1@
1A
0B
xC
xD
1E
0F
xG
xH
xI
xJ
xK
1L
xM
xN
xO
xP
xQ
xR
xS
xT
xU
xV
xW
xX
xY
xZ
x[
x\
x]
x^
x_
x`
xa
xb
xc
xd
xe
xf
xg
xh
xi
xj
xk
xl
xm
xn
xo
xp
xq
xr
xs
xt
xu
xv
xw
xx
xy
xz
x{
x|
x}
x~
$end
#200
0C
0D
#218
0M
0R
0W
0\
0a
0f
0k
0v
#5054
0G
#5764
0"
0;
#5771
1J
#6340
1K
#6420
0l
#6492
0b
#6495
0g
#6497
0]
#6498
0S
#6519
0H
0w
#6521
0N
#6522
0X
#6626
0E
#7146
1^
#7147
0c
#7151
1T
#7183
1I
#7185
1h
#7244
0~
#7246
0{
0z
0x
#7277
0y
#7282
0}
#7284
0|
#7325
0Y
#7326
0O
#7451
0t
#7556
0_
#7557
0d
#7561
0U
#7595
0i
#7735
0Z
#7736
0P
#7956
0e
#7993
0j
#8026
0u
#8080
0`
#8133
0[
#8135
0Q
#8267
0V
#8758
0q
#9070
0m
#9071
0r
#9575
0s
0o
#9576
0n
#9580
0p
#9905
08
#9920
09
#10000
1!
1;
#10031
03
#10084
04
#10101
07
#10144
0:
#10601
0.
#10634
1,
#10670
00
#10747
05
#10791
02
#10809
0/
#10822
01
#10842
1B
#10887
0-
#10891
06
#11042
1C
1D
#12356
0)
#12397
0J
#12424
1%
#12658
0*
#12932
0&
#12943
0'
#12949
0(
#12966
0K
#13197
0+
#20000
0!
0;
#20842
0B
#21042
0C
0D
#30000
1!
1;
#30842
1B
#31042
1C
1D
#32865
1M
#33341
1N
#33923
0I
#34066
1~
#34070
1y
#34076
1{
#34077
1z
#34173
1t
#34748
1u
#36964
1:
#37432
1.
#37613
12
#37639
1/
#37680
1-
#40000
0!
0;
#40842
0B
#41042
0C
0D
#50000
1!
1;
#50842
1B
#51042
1C
1D
#52865
0M
1v
#53313
1w
#53341
0N
#53923
1I
#54039
0~
#54051
1|
#54076
0{
#54077
0z
#54078
1x
#56714
19
#56964
0:
#57432
0.
#57437
10
#57466
0,
#57586
02
#57639
0/
#60000
0!
0;
#60842
0B
#61042
0C
0D
#70000
1!
1;
#70842
1B
#71042
1C
1D
#72865
1M
#73341
1N
#73923
0I
#74051
0|
#74077
1z
#74146
1O
#74173
0t
#74556
1P
#74748
0u
#74955
1Q
#76964
1:
#77432
1.
#77437
00
#80000
0!
0;
#80842
0B
#81042
0C
0D
#90000
1!
1;
#90842
1B
#91042
1C
1D
#92864
1R
#92865
0M
0v
#93313
0w
#93321
1S
#93341
0N
#93923
1I
#93974
0T
#94001
0P
#94067
1~
#94069
1{
#94070
0y
#94146
0O
#94217
1T
#94400
0Q
#94556
1P
#94955
1Q
#96714
09
#96728
18
#96964
0:
#97614
12
#97632
1/
#97680
0-
#100000
0!
0;
#100842
0B
#101042
0C
0D
#110000
1!
1;
#110842
1B
#111042
1C
1D
#112865
1M
#113341
1N
#113923
0I
#114066
0~
#114069
1}
#114076
0{
#114173
1t
#114748
1u
#116964
1:
#117609
11
#117613
02
#117639
0/
#120000
0!
0;
#120842
0B
#121042
0C
0D
#130000
1!
1;
#130842
1B
#131042
1C
1D
#132865
0M
1v
#133313
1w
#133341
0N
#133923
1I
#134077
0z
#136714
19
#136964
0:
#137432
0.
#140000
0#
0!
0;
#140842
0B
#140999
0L
#141042
0C
0D
#150000
1!
1;
#150842
1B
#151042
1C
1D
#160000
0!
0;
#160842
0B
#161042
0C
0D
#170000
1!
1;
#170842
1B
#171042
1C
1D
#180000
0!
0;
#180842
0B
#181042
0C
0D
#190000
1!
1;
#190842
1B
#191042
1C
1D
#200000
0!
0;
#200842
0B
#201042
0C
0D
#210000
1!
1;
#210842
1B
#211042
1C
1D
#220000
0!
0;
#220842
0B
#221042
0C
0D
#230000
1!
1;
#230842
1B
#231042
1C
1D
#240000
1#
0!
0;
#240842
0B
#240999
1L
#241042
0C
0D
#250000
1!
1;
#250842
1B
#251042
1C
1D
#252865
1M
#253341
1N
#253923
0I
#254069
0}
#254070
1y
#254076
1{
#254077
1z
0x
#254146
1O
#254173
0t
#254217
0T
#254556
0P
#254627
1U
#254748
0u
#254955
0Q
#255333
1V
#256964
1:
#257432
1.
#257465
1,
#257609
01
#257639
1/
#257680
1-
#260000
0!
0;
#260842
0B
#261042
0C
0D
#270000
1!
1;
#270842
1B
#271042
1C
1D
#272864
0R
#272865
0M
1W
0v
#273313
0w
#273321
0S
#273340
1X
#273341
0N
#273783
0z
#273923
1I
#273974
1T
#274001
1P
#274069
1x
#274070
0y
#274076
0{
#274146
0O
#274400
1Q
#274556
0P
#274955
0Q
#276714
09
#276728
08
#276919
17
#276964
0:
#277138
0.
#277457
0,
#277639
0/
#277680
0-
#280000
0!
0;
#280842
0B
#281042
0C
0D
#290000
1!
1;
#290842
1B
#291042
1C
1D
#292865
1M
#293341
1N
#293923
0I
#294076
1{
#294077
1z
#294173
1t
#294748
1u
#296964
1:
#297432
1.
#297639
1/
#300000
0!
0;
#300842
0B
#301042
0C
0D
#310000
1!
1;
#310842
1B
#311042
1C
1D
#312865
0M
1v
#313313
1w
#313341
0N
#313923
1I
#314076
0z
#316714
19
#316964
0:
#317431
0.
#320000
0!
0;
#320842
0B
#321042
0C
0D
#330000
1!
1;
#330842
1B
#331042
1C
1D
#332865
1M
#333341
1N
#333923
0I
#334066
1~
#334069
1}
#334076
0{
#334146
1O
#334173
0t
#334556
1P
#334748
0u
#334955
1Q
#336964
1:
#337609
11
#337613
12
#337639
0/
#340000
0!
0;
#340842
0B
#341042
0C
0D
#350000
1!
1;
#350842
1B
#351042
1C
1D
#352864
1R
#352865
0M
0v
#353313
0w
#353321
1S
#353341
0N
#353923
1I
#353974
0T
#354001
0P
#354039
0~
#354045
1Y
#354069
0x
#354070
1|
#354146
0O
#354217
1T
#354288
0Y
#354400
0Q
#354556
1P
#354955
1Q
#356714
09
#356728
18
#356964
0:
#357456
10
#357457
1,
#357586
02
#360000
1$
0!
0;
#360842
0B
1F
#361042
0C
0D
#365896
1G
#366569
1J
#367138
1K
#368022
1b
#368168
1H
#368169
1w
#368171
1N
#368310
1l
#368328
1g
#368330
1]
#368704
1_
#368834
0V
#368907
1x
#368925
1i
#368926
0R
#368927
0W
#368932
1{
#369006
1Z
#369042
1d
#369078
1O
#369136
1u
#369149
0T
#369165
1e
#369168
1j
#369169
0Q
1[
#369220
1Y
#369291
0^
#369323
0j
#369362
1c
#369404
0[
#369433
0h
#369441
0e
#369488
0P
#369559
0U
#369630
0Z
#369701
0_
#369772
0d
#369843
0i
#369887
1Q
#370000
1!
1;
#370028
1[
#370171
1e
#370225
1`
#370241
1j
#370265
1V
#370336
1n
#370342
1q
#370349
1m
#370842
1B
#370904
1r
#370908
0n
#371042
1C
1D
#371413
1p
#371570
19
#371794
1:
#371917
14
#371921
13
#372277
15
#372295
0,
#372495
1/
#372724
16
#373703
0%
#373940
1)
#374491
1*
#374782
1(
#380000
0$
0!
0;
#380842
0B
0F
#381042
0C
0D
#385896
0G
#386569
0J
#387138
0K
#390000
1!
1;
#390842
1B
#391042
1C
1D
#392864
1R
1\
1a
1f
1k
#392865
1M
1W
1v
#393312
0g
#393313
0w
#393319
0]
#393321
0S
#393340
0X
#393341
0N
#393449
0b
#393493
0l
#393783
1z
#393784
0|
#393923
0I
#393968
1^
#393974
1T
#393995
1Z
#394001
1P
#394002
1h
#394026
1d
#394069
0{
0z
0x
0}
#394104
0c
#394143
0Y
#394146
0O
#394393
0[
#394400
0Q
#394425
0e
#394514
0d
#394553
0Z
#394556
0P
#394913
1e
#394951
1[
#394955
1Q
#395769
0q
#395773
0r
#395825
1n
#395827
1s
#395833
0m
#395892
1o
#396397
0s
0o
#396398
0n
#396402
0p
#396714
09
#396728
08
#396901
04
#396919
07
#396964
0:
#397104
03
#397170
00
#397457
1,
#397609
01
#397632
0/
#397704
05
#397713
06
#399187
1%
#399360
0*
#399367
0)
#399771
0(
#400000
0!
0;
#400842
0B
#401042
0C
0D
#410000
1!
1;
#410842
1B
#411042
1C
1D
#412865
0M
#413341
1N
#413923
1I
#414066
1~
#414070
1y
#414076
1{
#414077
1z
#414173
1t
#414748
0u
#416964
1:
#417432
1.
#417613
12
#417639
1/
#417680
1-
#420000
0!
0;
#420842
0B
#421042
0C
0D
#430000
1!
1;
#430842
1B
#431042
1C
1D
#432865
1M
0v
#433313
1w
#433341
0N
#433923
0I
#434039
0~
#434051
1|
#434076
0{
#434077
0z
#434078
1x
#436714
19
#436964
0:
#437432
0.
#437437
10
#437466
0,
#437586
02
#437639
0/
#440000
0!
0;
#440842
0B
#441042
0C
0D
#450000
1!
1;
#450842
1B
#451042
1C
1D
#452865
0M
#453341
1N
#453923
1I
#454051
0|
#454077
1z
#454146
1O
#454173
0t
#454556
1P
#454748
1u
#454955
0Q
#456964
1:
#457432
1.
#457437
00
#460000
0!
0;
#460842
0B
#461042
0C
0D
#470000
1!
1;
#470842
1B
#471042
1C
1D
#472864
0R
#472865
1M
1v
#473313
0w
#473321
1S
#473341
0N
#473923
0I
#473974
0T
#474001
0P
#474067
1~
#474069
1{
#474070
0y
#474146
0O
#474217
1T
#474400
1Q
#474556
1P
#474955
0Q
#476714
09
#476728
18
#476964
0:
#477614
12
#477632
1/
#477680
0-
#480000
0!
0;
#480842
0B
#481042
0C
0D
#490000
1!
1;
#490842
1B
#491042
1C
1D
#492865
0M
#493341
1N
#493923
1I
#494066
0~
#494069
1}
#494076
0{
#494173
1t
#494748
0u
#496964
1:
#497609
11
#497613
02
#497639
0/
