Exercise4/Question1/simulation/qsim/Question1.msim.vcd
$comment
	File created using the following command:
		vcd file Question1.msim.vcd -direction
$end
$date
	Sun Apr 03 15:44:35 2022
$end
$version
	ModelSim Version 10.1d
$end
$timescale
	1ps
$end
$scope module Question1_vlg_vec_tst $end
$var reg 1 ! CLK $end
$var reg 1 " reset $end
$var reg 1 # Start $end
$var reg 8 $ XIN [7:0] $end
$var reg 8 % YIN [7:0] $end
$var wire 1 & HEX4 [6] $end
$var wire 1 ' HEX4 [5] $end
$var wire 1 ( HEX4 [4] $end
$var wire 1 ) HEX4 [3] $end
$var wire 1 * HEX4 [2] $end
$var wire 1 + HEX4 [1] $end
$var wire 1 , HEX4 [0] $end
$var wire 1 - HEX5 [6] $end
$var wire 1 . HEX5 [5] $end
$var wire 1 / HEX5 [4] $end
$var wire 1 0 HEX5 [3] $end
$var wire 1 1 HEX5 [2] $end
$var wire 1 2 HEX5 [1] $end
$var wire 1 3 HEX5 [0] $end
$var wire 1 4 HEX6 [6] $end
$var wire 1 5 HEX6 [5] $end
$var wire 1 6 HEX6 [4] $end
$var wire 1 7 HEX6 [3] $end
$var wire 1 8 HEX6 [2] $end
$var wire 1 9 HEX6 [1] $end
$var wire 1 : HEX6 [0] $end
$var wire 1 ; HEX7 [6] $end
$var wire 1 < HEX7 [5] $end
$var wire 1 = HEX7 [4] $end
$var wire 1 > HEX7 [3] $end
$var wire 1 ? HEX7 [2] $end
$var wire 1 @ HEX7 [1] $end
$var wire 1 A HEX7 [0] $end
$var wire 1 B Q0 $end
$var wire 1 C Q1 $end
$var wire 1 D Sum [7] $end
$var wire 1 E Sum [6] $end
$var wire 1 F Sum [5] $end
$var wire 1 G Sum [4] $end
$var wire 1 H Sum [3] $end
$var wire 1 I Sum [2] $end
$var wire 1 J Sum [1] $end
$var wire 1 K Sum [0] $end
$var wire 1 L X [7] $end
$var wire 1 M X [6] $end
$var wire 1 N X [5] $end
$var wire 1 O X [4] $end
$var wire 1 P X [3] $end
$var wire 1 Q X [2] $end
$var wire 1 R X [1] $end
$var wire 1 S X [0] $end
$var wire 1 T Y [7] $end
$var wire 1 U Y [6] $end
$var wire 1 V Y [5] $end
$var wire 1 W Y [4] $end
$var wire 1 X Y [3] $end
$var wire 1 Y Y [2] $end
$var wire 1 Z Y [1] $end
$var wire 1 [ Y [0] $end
$var wire 1 \ Z $end
$var wire 1 ] sampler $end
$scope module i1 $end
$var wire 1 ^ gnd $end
$var wire 1 _ vcc $end
$var wire 1 ` unknown $end
$var tri1 1 a devclrn $end
$var tri1 1 b devpor $end
$var tri1 1 c devoe $end
$var wire 1 d inst1|zflag|inst3~3_combout $end
$var wire 1 e inst1|zflag|inst3~5_combout $end
$var wire 1 f CLK~combout $end
$var wire 1 g CLK~clk_delay_ctrl_clkout $end
$var wire 1 h CLK~clkctrl_outclk $end
$var wire 1 i Start~combout $end
$var wire 1 j inst|Q1NQ0NStart~0_combout $end
$var wire 1 k reset~combout $end
$var wire 1 l inst|DQ0~regout $end
$var wire 1 m inst|DQ1~regout $end
$var wire 1 n inst|inst16~combout $end
$var wire 1 o inst|Q1Q0NZN~combout $end
$var wire 1 p inst1|RegX|mux8|$00000|auto_generated|result_node[4]~8_combout $end
$var wire 1 q inst|enbor~combout $end
$var wire 1 r inst1|RegY|lsmux|mux0|7~combout $end
$var wire 1 s inst|enaor~combout $end
$var wire 1 t inst|Q1Q0NZ~combout $end
$var wire 1 u inst1|RegY|lsmux|mux1|5~0_combout $end
$var wire 1 v inst1|RegY|lsmux|mux2|5~0_combout $end
$var wire 1 w inst1|RegY|lsmux|mux3|5~0_combout $end
$var wire 1 x inst1|XYSum|inst|inst6~0_combout $end
$var wire 1 y inst1|XYSum|inst2|inst6~0_combout $end
$var wire 1 z inst1|XYSum|inst3|inst6~0_combout $end
$var wire 1 { inst1|XYSum|inst4|inst6~0_combout $end
$var wire 1 | inst1|XYSum|inst5|inst1~combout $end
$var wire 1 } inst1|RegY|lsmux|mux4|5~0_combout $end
$var wire 1 ~ inst1|RegY|lsmux|mux5|5~0_combout $end
$var wire 1 !! inst1|XYSum|inst5|inst6~0_combout $end
$var wire 1 "! inst1|XYSum|inst6|inst1~combout $end
$var wire 1 #! inst1|RegY|lsmux|mux6|5~0_combout $end
$var wire 1 $! inst1|XYSum|inst6|inst6~0_combout $end
$var wire 1 %! inst1|XYSum|inst7|inst6~0_combout $end
$var wire 1 &! inst1|RegX|mux8|$00000|auto_generated|result_node[7]~5_combout $end
$var wire 1 '! inst1|XYSum|inst8|inst1~0_combout $end
$var wire 1 (! inst1|zflag|inst3~2_combout $end
$var wire 1 )! inst1|zflag|inst3~4_combout $end
$var wire 1 *! inst1|zflag|inst~regout $end
$var wire 1 +! inst4|WideOr0~0_combout $end
$var wire 1 ,! inst4|WideOr1~0_combout $end
$var wire 1 -! inst4|WideOr2~0_combout $end
$var wire 1 .! inst4|WideOr3~0_combout $end
$var wire 1 /! inst4|WideOr4~0_combout $end
$var wire 1 0! inst4|WideOr5~0_combout $end
$var wire 1 1! inst4|WideOr6~0_combout $end
$var wire 1 2! inst1|RegY|lsmux|mux7|5~0_combout $end
$var wire 1 3! inst5|WideOr0~0_combout $end
$var wire 1 4! inst5|WideOr1~0_combout $end
$var wire 1 5! inst5|WideOr2~0_combout $end
$var wire 1 6! inst5|WideOr3~0_combout $end
$var wire 1 7! inst5|WideOr4~0_combout $end
$var wire 1 8! inst5|WideOr5~0_combout $end
$var wire 1 9! inst5|WideOr6~0_combout $end
$var wire 1 :! inst1|XYSum|inst3|inst1~combout $end
$var wire 1 ;! inst1|RegX|mux8|$00000|auto_generated|result_node[2]~3_combout $end
$var wire 1 <! inst1|XYSum|inst4|inst1~combout $end
$var wire 1 =! inst1|RegX|mux8|$00000|auto_generated|result_node[3]~2_combout $end
$var wire 1 >! inst1|XYSum|inst2|inst1~combout $end
$var wire 1 ?! inst1|RegX|mux8|$00000|auto_generated|result_node[1]~4_combout $end
$var wire 1 @! inst1|RegX|mux8|$00000|auto_generated|result_node[0]~9_combout $end
$var wire 1 A! inst3|WideOr0~0_combout $end
$var wire 1 B! inst3|WideOr1~0_combout $end
$var wire 1 C! inst3|WideOr2~0_combout $end
$var wire 1 D! inst3|WideOr3~0_combout $end
$var wire 1 E! inst3|WideOr4~0_combout $end
$var wire 1 F! inst3|WideOr5~0_combout $end
$var wire 1 G! inst3|WideOr6~0_combout $end
$var wire 1 H! inst1|XYSum|inst7|inst1~combout $end
$var wire 1 I! inst1|RegX|mux8|$00000|auto_generated|result_node[6]~6_combout $end
$var wire 1 J! inst1|RegX|mux8|$00000|auto_generated|result_node[5]~7_combout $end
$var wire 1 K! inst2|WideOr0~0_combout $end
$var wire 1 L! inst2|WideOr1~0_combout $end
$var wire 1 M! inst2|WideOr2~0_combout $end
$var wire 1 N! inst2|WideOr3~0_combout $end
$var wire 1 O! inst2|WideOr4~0_combout $end
$var wire 1 P! inst2|WideOr5~0_combout $end
$var wire 1 Q! inst2|WideOr6~0_combout $end
$var wire 1 R! inst1|XYSum|inst8|inst1~combout $end
$var wire 1 S! inst1|XYSum|inst|inst1~0_combout $end
$var wire 1 T! YIN~combout [7] $end
$var wire 1 U! YIN~combout [6] $end
$var wire 1 V! YIN~combout [5] $end
$var wire 1 W! YIN~combout [4] $end
$var wire 1 X! YIN~combout [3] $end
$var wire 1 Y! YIN~combout [2] $end
$var wire 1 Z! YIN~combout [1] $end
$var wire 1 [! YIN~combout [0] $end
$var wire 1 \! XIN~combout [7] $end
$var wire 1 ]! XIN~combout [6] $end
$var wire 1 ^! XIN~combout [5] $end
$var wire 1 _! XIN~combout [4] $end
$var wire 1 `! XIN~combout [3] $end
$var wire 1 a! XIN~combout [2] $end
$var wire 1 b! XIN~combout [1] $end
$var wire 1 c! XIN~combout [0] $end
$var wire 1 d! inst1|RegY|ff8|dffs [7] $end
$var wire 1 e! inst1|RegY|ff8|dffs [6] $end
$var wire 1 f! inst1|RegY|ff8|dffs [5] $end
$var wire 1 g! inst1|RegY|ff8|dffs [4] $end
$var wire 1 h! inst1|RegY|ff8|dffs [3] $end
$var wire 1 i! inst1|RegY|ff8|dffs [2] $end
$var wire 1 j! inst1|RegY|ff8|dffs [1] $end
$var wire 1 k! inst1|RegY|ff8|dffs [0] $end
$var wire 1 l! inst1|RegX|ff8|dffs [7] $end
$var wire 1 m! inst1|RegX|ff8|dffs [6] $end
$var wire 1 n! inst1|RegX|ff8|dffs [5] $end
$var wire 1 o! inst1|RegX|ff8|dffs [4] $end
$var wire 1 p! inst1|RegX|ff8|dffs [3] $end
$var wire 1 q! inst1|RegX|ff8|dffs [2] $end
$var wire 1 r! inst1|RegX|ff8|dffs [1] $end
$var wire 1 s! inst1|RegX|ff8|dffs [0] $end
$upscope $end
$upscope $end
$enddefinitions $end
#0
$dumpvars
1!
0"
1#
b1111111 $
b100000 %
x,
x+
x*
x)
x(
x'
x&
x3
x2
x1
x0
x/
x.
x-
x:
x9
x8
x7
x6
x5
x4
xA
x@
x?
x>
x=
x<
x;
xB
xC
xK
xJ
xI
xH
xG
xF
xE
xD
xS
xR
xQ
xP
xO
xN
xM
xL
x[
xZ
xY
xX
xW
xV
xU
xT
x\
x]
0^
1_
x`
1a
1b
1c
xd
xe
1f
xg
xh
1i
xj
0k
xl
xm
xn
xo
xp
xq
xr
xs
xt
xu
xv
xw
xx
xy
xz
x{
x|
x}
x~
x!!
x"!
x#!
x$!
x%!
x&!
x'!
x(!
x)!
x*!
x+!
x,!
x-!
x.!
x/!
x0!
x1!
x2!
x3!
x4!
x5!
x6!
x7!
x8!
x9!
x:!
x;!
x<!
x=!
x>!
x?!
x@!
xA!
xB!
xC!
xD!
xE!
xF!
xG!
xH!
xI!
xJ!
xK!
xL!
xM!
xN!
xO!
xP!
xQ!
xR!
xS!
0[!
0Z!
0Y!
0X!
0W!
1V!
0U!
0T!
1c!
1b!
1a!
1`!
1_!
1^!
1]!
0\!
xk!
xj!
xi!
xh!
xg!
xf!
xe!
xd!
xs!
xr!
xq!
xp!
xo!
xn!
xm!
xl!
$end
#196
1g
1h
#218
0l
0m
0o!
0k!
0j!
0i!
0h!
0g!
0f!
0e!
0l!
0*!
0d!
0q!
0p!
0r!
0s!
0m!
0n!
#696
0n
#892
00!
#893
01!
#982
0x
#1106
0t
#1154
0S!
#1251
0y
#1252
0z
#1387
0o
#1389
0{
#1390
0>!
#1548
0-!
#1573
0$!
#1576
08!
#1577
09!
#1579
0!!
#1580
05!
#1632
07!
#1635
03!
#1638
04!
#1654
0<!
0:!
#1741
1e
#1770
0.!
#1787
0%!
#1792
06!
#1886
0'!
#1898
0#!
#1904
0L!
#1936
0/!
#1946
0|
#1963
0,!
#1967
0+!
#1978
0"!
#1999
0H!
#2063
0G!
#2068
0F!
#2070
0C!
#2190
0}
#2240
0A!
#2264
1~
#2286
0K!
#2293
0D!
#2296
0B!
#2299
0E!
#2326
0O!
#2340
0d
#2348
0M!
#2350
0Q!
#2351
0N!
#2353
0P!
#2380
0w
#2415
1"
0]
#2500
02!
#2501
0R!
#2588
0(!
#2726
1p
#2749
0u
#2858
0v
#2884
0r
#2995
1)!
#3152
1?!
1;!
#3277
1k
#3304
1=!
#3324
1@!
#3553
0\
#3867
0Z
#3879
0Y
#3902
0V
#3912
0X
#3922
0[
#4149
0C
#4174
0,
#4189
0+
#4193
0T
#4200
0U
#4241
0L
#4277
0P
#4284
0W
#4397
0R
#4424
0B
#4484
0Q
#4539
0M
#4649
0(
#4659
02
#4681
03
#4689
0N
#4703
01
#4723
0S
#4771
0K
#4828
0/
#4855
0O
#4863
0)
#4920
1J!
#5010
0.
#5030
1-
#5038
0*
#5076
0'
#5177
06
#5189
00
#5210
1I!
#5217
0&!
#5235
1&
#5269
0H
#5273
0I
#5279
0J
#5293
1s
#5297
0<
#5321
14
#5358
0G
#5381
0F
#5389
05
#5406
07
#5407
0?
#5429
0=
#5430
1j
#5443
1q
#5444
0>
#5456
0E
#5461
0A
#5485
0@
#5564
1;
#5759
0:
#5776
09
#5905
0D
#6000
08
#10000
0!
1]
#10842
0f
#11038
0g
0h
#12838
1n!
1m!
1*!
1o!
#12842
1s!
1r!
1p!
1q!
1l
#12844
1f!
#13315
0e
#13320
1n
#13439
1|
#13454
1:!
#13460
1>!
#13557
0q
#13624
1H!
#13631
1S!
#13872
0j
#13965
0s
#14028
1(!
#14090
0)!
#14140
1d
#14199
0:!
0>!
#14200
0H!
#14202
16!
13!
0|
1"!
#14203
19!
#14206
15!
#14365
1e
#14510
1'!
#14666
1K!
#14864
1A!
#14865
1F!
#14866
1E!
#14902
1O!
#14917
1D!
#14937
1R!
#14973
1P!
#16173
1\
#16528
1V
#16901
1P
#17021
1R
#17048
1B
#17108
1Q
#17159
1M
#17248
1K
#17307
13
#17309
1N
#17347
1S
#17454
1/
#17475
1O
#17597
0-
#17599
10
#17605
1F
#17944
0;
#17945
04
#17983
1?
#18030
17
#18105
1@
#18341
1D
#18567
18
#18573
19
#20000
0#
b111111 $
b11111 $
b1111 $
b111 $
b11 $
b1 $
b0 $
b0 %
1!
0]
#20832
0^!
#20842
1f
0]!
#20852
0i
#20989
0V!
#20999
0_!
0`!
0a!
0b!
0c!
#21038
1g
1h
#22244
0p
#22441
0=!
#22603
0;!
#23253
0~
#23476
0@!
#23498
0?!
#25752
0J!
#26052
0I!
#30000
0!
1]
#30842
0f
#31038
0g
0h
#32838
0*!
#32842
1m
0l
#33320
0n
#33494
1q
#33699
0'!
#33974
0e
#34011
1o
#34018
1<!
#34126
0R!
#34197
1$!
#34199
1:!
1>!
#34200
1H!
#34202
1|
0"!
#34616
1%!
#34623
0H!
#35232
1&!
#35330
1R!
#35350
1p
#35776
1?!
1;!
#35928
1=!
#35948
1@!
#36173
0\
#36773
1C
#37048
0B
#37605
0F
#37614
1G
#37633
1H
#37818
1I
#38088
1J
#40000
1!
0]
#40842
1f
#41038
1g
1h
#50000
0!
1]
#50842
0f
#51038
0g
0h
#52838
0n!
0m!
1l!
#52842
0m
#53315
1e
#53437
1'!
#53460
0q
#53616
1"!
#53619
0$!
#53623
0%!
#53624
1H!
#53864
0R!
#54011
0o
#54028
1I!
#54045
0H!
#54156
1J!
#54337
1R!
#54449
0I!
#54524
1L!
#54527
0P!
0O!
#54531
1Q!
#54968
1M!
#54970
0Q!
#54971
1N!
#54973
0L!
#55232
0&!
#55350
0p
#55378
0J!
#55776
0?!
0;!
#55928
0=!
#55948
0@!
#56773
0C
#56861
1L
#57019
1F
#57159
0M
#57309
0N
#57608
0?
#57659
0@
#58049
1=
#58064
1>
#60000
b1000000 %
b1010000 %
b1010100 %
b1010101 %
1#
b1000000 $
1!
0]
#60842
1f
1]!
#60852
1i
#60989
1U!
#60999
1W!
1Y!
1[!
#61038
1g
1h
#62887
1#!
#63189
1}
#63857
1v
#63883
1r
#66052
1I!
#66145
1s
#66282
1j
#66295
1q
#70000
0!
1]
#70842
0f
#71038
0g
0h
#72838
1m!
0l!
0o!
#72842
0s!
0r!
0p!
0q!
1l
#72844
1e!
0f!
1g!
1i!
1k!
#73315
0e
#73320
1n
#73437
0'!
#73439
0|
#73460
0>!
#73557
0q
#73606
1x
#73624
1H!
#73864
0R!
#73872
0j
#73876
1z
#73965
0s
#74013
1y
#74199
0:!
#74203
09!
1!!
#74206
05!
#74278
0<!
#74280
1{
#74365
1e
#74398
1+!
#74416
1:!
#74510
1'!
#74593
1.!
#74602
0"!
#74605
1$!
#74671
0M!
#74692
0F!
#74693
0E!
#74837
1|
#74864
0A!
#74902
1O!
#74905
1L!
#74906
0N!
#74917
0D!
#74937
1R!
#75024
1%!
#75030
0(!
#75031
0H!
#75738
0R!
#76505
1Y
#76528
0V
#76548
1[
#76826
1U
#76861
0L
#76901
0P
#76910
1W
#77021
0R
#77048
1B
#77108
0Q
#77159
1M
#77307
03
#77347
0S
#77349
0J
#77454
0/
#77475
0O
#77666
0&
#77686
1)
#77752
0=
#77893
0H
#77945
14
#77983
1?
#77999
0>
#78005
0F
#78030
07
#78298
1<
#78394
08
#78400
09
#79142
0D
#80000
b10101 %
b101 %
b1 %
b0 %
0#
b0 $
1!
0]
#80842
1f
0]!
#80852
0i
#80989
0U!
#80999
0W!
0Y!
0[!
#81038
1g
1h
#82887
0#!
#83189
0}
#83857
0v
#83883
0r
#86052
0I!
#90000
0!
1]
#90842
0f
#91038
0g
0h
#92842
1m
0l
#93320
0n
#93460
1q
#93596
0x
#93699
0'!
#93875
0y
#93974
0e
#94011
1o
#94013
0{
#94018
1<!
#94126
1R!
#94197
0$!
#94200
1H!
#94202
0|
1"!
#94281
0z
#94401
1(!
#94569
0!!
#94570
1|
#94623
0H!
#94683
0<!
#94968
0"!
#95232
1&!
#95350
1p
#95776
1;!
#95948
1@!
#96773
1C
#97048
0B
#97530
1D
#100000
1!
0]
#100842
1f
#101038
1g
1h
#110000
0!
1]
#110842
0f
#111038
0g
0h
#112838
0m!
1l!
1o!
#112842
1s!
1q!
0m
#113165
0@!
#113315
1e
#113437
1'!
#113438
1!!
#113439
0|
#113454
0:!
#113460
0q
#113606
1x
#113623
0%!
#113624
1H!
#113631
0S!
#113800
1z
#113837
1"!
#113864
0R!
#113866
0;!
#113868
0p
#114011
0o
#114014
1>!
#114028
1I!
#114202
1<!
#114337
1R!
#114377
1J!
#114517
0K!
#114529
1N!
#114531
1Q!
#114532
1M!
#114613
1=!
#114664
0O!
#114862
1D!
#114890
1?!
#114905
0L!
#114906
1K!
#114907
0Q!
#114922
1A!
#115230
0I!
#115232
0&!
#115378
0J!
#115776
0?!
#115928
0=!
#116773
0C
#116851
0G
#116861
1L
#117073
0I
#117081
1E
#117108
1Q
#117159
0M
#117240
1F
#117248
0K
#117347
1S
#117475
1O
#117613
1=
#117622
1>
#117745
0?
#117817
1H
#117903
1J
#117975
17
#118003
04
#118298
0<
#120000
b10000000 $
b10100000 $
b10110000 $
b10111000 $
b10111100 $
b10111110 $
b1 %
1#
b11111110 $
1!
0]
#120832
1\!
1^!
#120842
1f
1]!
#120852
1i
#120999
1_!
1`!
1a!
1b!
1[!
#121038
1g
1h
#122244
1p
#122441
1=!
#122603
1;!
#123498
1?!
#123883
1r
#125752
1J!
#126049
1&!
#126052
1I!
#126145
1s
#126282
1j
#126295
1q
#130000
0!
1]
#130842
0f
#131038
0g
0h
#132838
1n!
1m!
#132842
0s!
1r!
1p!
1l
#132844
0e!
0g!
0i!
#133315
0e
#133320
1n
#133460
0>!
#133557
0q
#133616
0"!
#133619
1$!
#133623
1%!
#133624
0H!
#133631
1S!
#133785
0z
#133872
0j
#133965
0s
#134018
0!!
#134187
0<!
#134197
0$!
#134199
1>!
#134202
1"!
#134261
03!
#134337
0R!
#134365
1e
#134413
0%!
#134414
1H!
#134416
0(!
#134417
0"!
#134418
06!
#134510
0'!
#134593
0.!
#134622
1(!
#134623
0H!
#134668
1P!
#134671
0M!
#134693
1E!
#134864
1B!
0A!
#134866
0E!
#134867
1C!
#134946
1O!
#135212
0(!
#136505
0Y
#136826
0U
#136901
1P
#136910
0W
#137021
1R
#137048
1B
#137159
1M
#137248
1K
#137309
1N
#137347
0S
#137656
1-
#137686
0)
#137741
0D
#137752
0=
#137800
1@
#137802
0H
#137815
00
#137820
0F
#137945
14
#137957
15
#137974
16
#138027
1?
#138080
0E
#140000
b1111110 $
b1011110 $
b1001110 $
b1000110 $
b1000010 $
b1000000 $
b0 %
0#
b0 $
1!
0]
#140832
0\!
0^!
#140842
1f
0]!
#140852
0i
#140999
0_!
0`!
0a!
0b!
0[!
#141038
1g
1h
#142244
0p
#142441
0=!
#142603
0;!
#143498
0?!
#143883
0r
#145752
0J!
#146049
0&!
#146052
0I!
#150000
0!
1]
#150842
0f
#151038
0g
0h
#152842
1m
0l
#153320
0n
#153460
1q
#153596
0x
#153699
1'!
#153974
0e
#154011
1o
#154018
1<!
#154126
1R!
#154199
1:!
#154200
1H!
#154202
1|
1"!
#154401
1(!
#155230
1I!
#155232
1&!
#155350
1p
#155378
1J!
#155776
1?!
1;!
#155928
1=!
#155948
1@!
#156773
1C
#157048
0B
#157530
1D
#157605
1F
#157614
1G
#157633
1H
#157657
1E
#157818
1I
#160000
1!
0]
#160842
1f
#161038
1g
1h
#170000
0!
1]
#170842
0f
#171038
0g
0h
#172842
1s!
0m
#173165
0@!
#173460
0q
#173606
1x
#173631
0S!
#174011
0o
#174013
1y
#174014
0>!
#174416
0:!
#174419
1z
#174821
0<!
#174823
1{
#174828
0;!
#174864
0B!
1A!
#174865
1F!
#174866
1E!
#174867
0C!
#174890
0?!
#175230
0I!
#175232
0&!
0=!
0d
#175350
0p
#175378
0J!
#175379
1!!
#175380
0|
#175778
0"!
#175781
1$!
#176200
1%!
#176206
0(!
#176207
0H!
#176613
1)!
#176773
0C
#176914
0R!
#177248
0K
#177347
1S
#177903
0J
#177945
04
#177957
05
#177974
06
#178035
0I
#178436
0H
#178567
18
#178573
19
#178792
0G
#179181
0F
#179664
0E
#180000
b10000000 %
b10001000 %
b10001010 %
b11001010 %
b11001110 %
b10000000 $
b10001000 $
b10001100 $
b10001110 $
1#
b11001110 $
1!
0]
#180318
0D
#180832
1\!
#180842
1f
1]!
#180852
1i
#180979
1T!
#180989
1U!
#180999
1X!
1Y!
1Z!
1`!
1a!
1b!
#181038
1g
1h
#182441
1=!
#182603
1;!
#182887
1#!
#183379
1w
#183479
12!
#183498
1?!
#183748
1u
#183857
1v
#186049
1&!
#186052
1I!
#186145
1s
#186282
1j
#186295
1q
#190000
0!
1]
#190842
0f
#191038
0g
0h
#192838
0n!
1*!
0o!
#192842
0s!
1l
#192844
1d!
1e!
1h!
1i!
1j!
0k!
#193320
1n
#193438
0!!
#193439
1|
#193557
0q
#193616
1"!
#193619
0$!
#193719
1/!
#193744
0+!
#193872
0j
#193965
0s
#194024
0'!
#194044
1(!
#194090
0)!
#194197
0%!
#194202
0|
#194203
1!!
#194261
13!
#194339
14!
#194341
15!
#194365
1e
#194394
1-!
#194414
1H!
#194451
1R!
#194481
0/!
#194510
1'!
#194589
1,!
#194593
1.!
#194602
0"!
#194605
1$!
#194864
1B!
0A!
#194865
0F!
#194866
0E!
#194867
1C!
#194902
0P!
#194905
1L!
#194907
1M!
#194946
0O!
#194971
0N!
#195024
1%!
#195030
0(!
#195031
0H!
#195437
1)!
#195738
0R!
#196173
1\
#196493
1Z
#196505
1Y
#196538
1X
#196548
0[
#196819
1T
#196826
1U
#197012
1&
#197048
1B
#197309
0N
#197347
0S
#197475
0O
#197495
1(
#197589
1/
#197656
0-
#197686
1)
#197702
1'
#197711
1.
#197945
14
#197957
15
#197974
16
#197988
1=
#198027
0?
#198034
0@
#198064
0>
#198298
1<
#198567
08
#198573
09
#200000
b1001110 %
b1000110 %
b1000100 %
b100 %
b0 %
b1001110 $
b1000110 $
b1000010 $
b1000000 $
0#
b0 $
1!
0]
#200832
0\!
#200842
1f
0]!
#200852
0i
#200979
0T!
#200989
0U!
#200999
0X!
0Y!
0Z!
0`!
0a!
0b!
#201038
1g
1h
#202441
0=!
#202603
0;!
#202887
0#!
#203379
0w
#203479
02!
#203498
0?!
#203748
0u
#203857
0v
#206049
0&!
#206052
0I!
#210000
0!
1]
#210842
0f
#211038
0g
0h
#212842
1m
0l
#213320
0n
#213596
0x
#213699
0'!
#213974
0e
#214018
1<!
#214039
1t
#214044
1s
#214126
1R!
#214197
0$!
#214199
1:!
#214200
1H!
#214202
1|
1"!
#214203
0!!
#214401
1(!
#214429
1d
#214481
1v
1w
#214602
0"!
#214623
0H!
#214746
0)!
#214781
1}
#214784
12!
#216773
1C
#217048
0B
#217530
1D
#217614
1G
#217633
1H
#217818
1I
#220000
1!
0]
#220842
1f
#221038
1g
1h
#230000
0!
1]
#230842
0f
#231038
0g
0h
#232838
0*!
#232842
0m
#232844
0e!
1g!
0j!
#233429
1~
#233498
1o
#233574
02!
#233598
0v
#233726
0s
0t
#233744
0.!
1+!
#233794
1>!
#233796
0y
#234011
0o
#234018
1!!
#234019
0|
#234168
0w
#234199
0:!
#234255
16!
#234412
04!
#234413
0%!
#234414
1H!
#234417
1"!
#234468
0~
0}
#235127
0R!
#236173
0\
#236493
0Z
#236773
0C
#236826
0U
#236837
0)
#236910
1W
#237012
0&
#237431
0G
#237652
10
#237683
1J
#237784
0.
#237818
0I
#237820
1F
#237871
1E
#238531
0D
#239000
1!
0]
#239842
1f
