Exercise5/Question1/simulation/qsim/Question1.msim.vcd
$comment
	File created using the following command:
		vcd file Question1.msim.vcd -direction
$end
$date
	Sun Apr 10 14:33:14 2022
$end
$version
	ModelSim Version 10.1d
$end
$timescale
	1ps
$end
$scope module MUX16_1_vlg_vec_tst $end
$var reg 16 ! D [15:0] $end
$var reg 4 " SEL [3:0] $end
$var wire 1 # Y $end
$var wire 1 $ sampler $end
$scope module i1 $end
$var wire 1 % gnd $end
$var wire 1 & vcc $end
$var wire 1 ' unknown $end
$var tri1 1 ( devclrn $end
$var tri1 1 ) devpor $end
$var tri1 1 * devoe $end
$var wire 1 + u3|Equal2~0_combout $end
$var wire 1 , u3|Y~0_combout $end
$var wire 1 - u1|Y~0_combout $end
$var wire 1 . u1|Y~1_combout $end
$var wire 1 / u4|Y~0_combout $end
$var wire 1 0 u4|Y~1_combout $end
$var wire 1 1 u4|Y~2_combout $end
$var wire 1 2 u4|Y~3_combout $end
$var wire 1 3 u3|Y~1_combout $end
$var wire 1 4 u2|Y~0_combout $end
$var wire 1 5 u2|Y~1_combout $end
$var wire 1 6 u4|Y~4_combout $end
$var wire 1 7 u4|Y~5_combout $end
$var wire 1 8 SEL~combout [3] $end
$var wire 1 9 SEL~combout [2] $end
$var wire 1 : SEL~combout [1] $end
$var wire 1 ; SEL~combout [0] $end
$var wire 1 < D~combout [15] $end
$var wire 1 = D~combout [14] $end
$var wire 1 > D~combout [13] $end
$var wire 1 ? D~combout [12] $end
$var wire 1 @ D~combout [11] $end
$var wire 1 A D~combout [10] $end
$var wire 1 B D~combout [9] $end
$var wire 1 C D~combout [8] $end
$var wire 1 D D~combout [7] $end
$var wire 1 E D~combout [6] $end
$var wire 1 F D~combout [5] $end
$var wire 1 G D~combout [4] $end
$var wire 1 H D~combout [3] $end
$var wire 1 I D~combout [2] $end
$var wire 1 J D~combout [1] $end
$var wire 1 K D~combout [0] $end
$upscope $end
$upscope $end
$enddefinitions $end
#0
$dumpvars
b1 !
b0 "
x#
x$
0%
1&
x'
1(
1)
1*
x+
x,
x-
x.
x/
x0
x1
x2
x3
x4
x5
x6
x7
0;
0:
09
08
1K
0J
0I
0H
0G
0F
0E
0D
0C
0B
0A
0@
0?
0>
0=
0<
$end
#4843
04
#4973
0,
#5319
0+
#5414
02
#5460
0-
#5516
1/
05
#5740
03
#5856
0.
#6078
06
#6184
10
#6577
11
#7073
17
#10000
b1000 "
b1010 "
0$
#10860
18
#10979
1:
#11367
1#
#13407
0/
#13410
1+
#14075
00
#14468
01
#14964
07
#19258
0#
#20000
b11 !
b10 !
b1011 "
b11 "
b1 "
1$
#20832
1J
#20860
08
#20862
0K
1;
#20979
0:
#23407
1/
#23410
0+
#24075
10
#26008
0/
#26181
1+
#26206
00
#26676
10
#27069
11
#27565
17
#30000
b101 "
b100 "
b1100 "
0$
#30860
18
#30862
19
0;
#31859
1#
#35889
01
#35891
12
#36181
0+
#36206
00
#36385
07
#36892
02
#36895
16
#37292
17
#37556
06
#37953
07
#40000
b110 !
b100 !
b1110 "
b1010 "
b10 "
1$
#40832
0J
#40842
1I
#40860
08
#40862
09
#40979
1:
#42247
0#
#43410
1+
#44121
12
#45822
1/
#45891
02
#46490
10
#46883
11
#47379
17
#50000
b0 "
0$
#50979
0:
#51673
1#
#53407
0/
#53410
0+
#54075
00
#54468
01
#54964
07
#59258
0#
#60000
b1100 !
b1 "
b1000 !
b11 "
1$
#60832
1H
#60842
0I
#60862
1;
#60979
1:
#63407
1/
#63410
1+
#64075
10
#64468
11
#64964
17
#65822
0/
#66213
1-
#66378
1/
#66490
00
#66883
01
#67046
10
#67379
07
#67439
11
#67935
17
#69258
1#
#70000
b111 "
b1111 "
b1101 "
0$
#70860
18
#70862
19
#70979
0:
#73406
1.
#73407
0/
#73412
0-
#73808
0.
#74075
00
#74468
01
#74964
07
#75891
12
#79258
0#
#80000
b11000 !
b10000 !
b1100 "
b100 "
1$
#80832
0H
#80860
08
#80862
1G
0;
#86181
0+
#86213
1-
#86609
1.
#86892
02
#86895
16
#87276
11
#87556
06
#87772
17
#90000
b0 "
b10 "
b11 "
0$
#90862
09
1;
#90979
1:
#92066
1#
#93406
0.
#93410
1+
#93412
0-
#94073
01
#94121
12
#94569
07
#95891
02
#96213
1-
#96378
1/
#98863
0#
#100000
b110000 !
b100000 !
b111 "
b101 "
1$
#100842
1F
#100862
0G
19
#100979
0:
#103406
1.
#103407
0/
#103412
0-
#103808
0.
#105891
12
#106302
1-
#106698
1.
#107365
11
#107861
17
#110000
b1101 "
b1100 "
b1000 "
0$
#110860
18
#110862
09
0;
#112155
1#
#115889
01
#115891
02
#116181
0+
#116213
0-
#116385
07
#116609
0.
#120000
b1100000 !
b1000000 !
b1010 "
b10 "
b110 "
1$
#120679
0#
#120842
0F
#120860
08
#120862
19
#120979
1E
1:
#123410
1+
#123480
1.
#125891
12
#126917
11
#127413
17
#130000
b100 "
b1100 "
0$
#130860
18
#130979
0:
#131707
1#
#133406
0.
#133410
0+
#134073
01
#134121
02
#134124
16
#134569
07
#134785
06
#138863
0#
#140000
b11000000 !
b1101 "
b10000000 !
b1111 "
b111 "
1$
#140822
1D
#140860
08
#140862
1;
#140979
0E
1:
#143410
1+
#144121
12
#146213
1-
#146378
1/
#146609
1.
#147276
11
#147772
17
#150000
b11 "
b1 "
0$
#150862
09
#150979
0:
#152066
1#
#153407
0/
#153412
0-
#153808
0.
#154475
01
#154971
07
#155891
02
#159265
0#
#160000
b110000000 !
b100000000 !
b0 "
b1000 "
1$
#160822
0D
#160852
1C
#160860
18
#160862
0;
#166181
0+
#166892
12
#167556
16
#167953
17
#170000
b1100 "
b1101 "
0$
#170862
19
1;
#172247
1#
#175891
02
#176181
1+
#176555
06
#176892
12
#176952
07
#180000
b1100000000 !
b1000000000 !
b1001 "
1$
#180842
1B
#180852
0C
#180862
09
#181246
0#
#185685
14
#185891
02
#186358
15
#186761
16
#187158
17
#190000
b1011 "
b11 "
b10 "
0$
#190860
08
#190862
0;
#190979
1:
#191452
1#
#193407
1/
#193412
1-
#193413
04
#194086
05
#194489
06
#194886
07
#196206
10
#196213
0-
#196378
0/
#196917
11
#197046
00
#197413
17
#197439
01
#197935
07
#199180
0#
#200000
b11000000000 !
b10000000000 !
b1010 "
1$
#200832
1A
#200842
0B
#200860
18
#205989
14
#206662
15
#207065
16
#207462
17
#210000
b1110 "
b1100 "
0$
#210862
19
#210979
0:
#211756
1#
#213410
0+
#213413
04
#214086
05
#214124
06
#214521
07
#218815
0#
#220000
b110000000000 !
b1101 "
b100000000000 !
b1001 "
b1011 "
1$
#220832
0A
#220842
1@
#220862
09
1;
#220979
1:
#223410
1+
#223413
14
#224086
15
#224121
12
#225891
02
#225989
04
#226213
1-
#226378
1/
#226555
16
#226952
17
#230000
b11 "
0$
#230860
08
#231246
1#
#236927
07
#240000
b1100000000000 !
b1000000000000 !
b10 "
b110 "
b100 "
b1100 "
1$
#240832
1?
#240842
0@
#240860
18
#240862
19
0;
#240979
0:
#241221
0#
#243135
05
#243406
1.
#243407
0/
#243412
0-
#243538
06
#243808
0.
#245891
12
#246181
0+
#246895
16
#247292
17
#250000
b1101 "
b1111 "
0$
#250862
1;
#250979
1:
#251586
1#
#253410
1+
#254124
06
#254521
07
#256213
1-
#256378
1/
#258815
0#
#260000
b11000000000000 !
b10000000000000 !
b1101 "
1$
#260832
0?
#260912
1>
#260979
0:
#263406
1.
#263407
0/
#263412
0-
#263808
0.
#265885
1,
#266596
13
#267122
16
#267519
17
#270000
b101 "
0$
#270860
08
#271813
1#
#276927
07
#280000
b110000000000000 !
b100 "
b100000000000000 !
b110 "
b1110 "
1$
#280860
18
#280862
0;
#280872
1=
#280912
0>
#280979
1:
#281221
0#
#283407
1/
#283409
0,
#283412
1-
#284120
03
#284646
06
#286006
1,
#286206
10
#286213
0-
#286378
0/
#286717
13
#287046
00
#287243
16
#287640
17
#290000
b1010 "
0$
#290862
09
#291934
1#
#295891
02
#296555
06
#296952
07
#300000
b1100000000000000 !
b1000000000000000 !
b1011 "
b1111 "
1$
#300852
1<
#300862
19
1;
#300872
0=
#301246
0#
#305891
12
#306029
0,
#306213
1-
#306378
1/
#306555
16
#306952
17
#310000
b1101 "
b1001 "
0$
#310862
09
#310979
0:
#311246
1#
#313406
1.
#313407
0/
03
#313412
0-
#313808
0.
#313933
06
#314330
07
#315891
02
#318624
0#
