Exercise4/Question1 _old/simulation/qsim/Question1.msim.vcd
$comment
	File created using the following command:
		vcd file Question1.msim.vcd -direction
$end
$date
	Sun Mar 27 14:01:14 2022
$end
$version
	ModelSim Version 10.1d
$end
$timescale
	1ps
$end
$scope module Question1_vlg_vec_tst $end
$var reg 1 ! CLK $end
$var reg 1 " reset $end
$var reg 1 # Start $end
$var reg 8 $ XIN [7:0] $end
$var reg 8 % YIN [7:0] $end
$var wire 1 & Q0 $end
$var wire 1 ' Q1 $end
$var wire 1 ( Sum [7] $end
$var wire 1 ) Sum [6] $end
$var wire 1 * Sum [5] $end
$var wire 1 + Sum [4] $end
$var wire 1 , Sum [3] $end
$var wire 1 - Sum [2] $end
$var wire 1 . Sum [1] $end
$var wire 1 / Sum [0] $end
$var wire 1 0 X [7] $end
$var wire 1 1 X [6] $end
$var wire 1 2 X [5] $end
$var wire 1 3 X [4] $end
$var wire 1 4 X [3] $end
$var wire 1 5 X [2] $end
$var wire 1 6 X [1] $end
$var wire 1 7 X [0] $end
$var wire 1 8 Y [7] $end
$var wire 1 9 Y [6] $end
$var wire 1 : Y [5] $end
$var wire 1 ; Y [4] $end
$var wire 1 < Y [3] $end
$var wire 1 = Y [2] $end
$var wire 1 > Y [1] $end
$var wire 1 ? Y [0] $end
$var wire 1 @ sampler $end
$scope module i1 $end
$var wire 1 A gnd $end
$var wire 1 B vcc $end
$var wire 1 C unknown $end
$var tri1 1 D devclrn $end
$var tri1 1 E devpor $end
$var tri1 1 F devoe $end
$var wire 1 G inst1|zflag|inst3~5_combout $end
$var wire 1 H CLK~combout $end
$var wire 1 I CLK~clkctrl_outclk $end
$var wire 1 J inst|Q1NQ0NStart~0_combout $end
$var wire 1 K reset~combout $end
$var wire 1 L reset~clkctrl_outclk $end
$var wire 1 M inst|DQ0~regout $end
$var wire 1 N inst|DQ1~regout $end
$var wire 1 O inst|Q1Q0NZN~combout $end
$var wire 1 P inst1|RegY|lsmux|mux0|7~combout $end
$var wire 1 Q Start~combout $end
$var wire 1 R inst|enbor~combout $end
$var wire 1 S inst1|RegX|mux8|$00000|auto_generated|result_node[0]~9_combout $end
$var wire 1 T inst|enaor~combout $end
$var wire 1 U inst1|XYSum|inst|inst1~0_combout $end
$var wire 1 V inst|inst16~combout $end
$var wire 1 W inst1|RegX|mux8|$00000|auto_generated|result_node[3]~5_combout $end
$var wire 1 X inst1|RegY|lsmux|mux1|5~0_combout $end
$var wire 1 Y inst1|RegY|lsmux|mux2|5~0_combout $end
$var wire 1 Z inst1|XYSum|inst|inst6~0_combout $end
$var wire 1 [ inst1|XYSum|inst2|inst1~combout $end
$var wire 1 \ inst1|RegX|mux8|$00000|auto_generated|result_node[1]~7_combout $end
$var wire 1 ] inst1|XYSum|inst2|inst6~0_combout $end
$var wire 1 ^ inst1|XYSum|inst3|inst6~0_combout $end
$var wire 1 _ inst1|XYSum|inst4|inst1~combout $end
$var wire 1 ` inst1|zflag|inst3~3_combout $end
$var wire 1 a inst1|RegX|mux8|$00000|auto_generated|result_node[5]~3_combout $end
$var wire 1 b inst1|RegY|lsmux|mux3|5~0_combout $end
$var wire 1 c inst1|RegY|lsmux|mux4|5~0_combout $end
$var wire 1 d inst1|XYSum|inst4|inst6~0_combout $end
$var wire 1 e inst1|XYSum|inst5|inst6~0_combout $end
$var wire 1 f inst1|XYSum|inst6|inst1~combout $end
$var wire 1 g inst1|RegX|mux8|$00000|auto_generated|result_node[7]~8_combout $end
$var wire 1 h inst1|RegY|lsmux|mux7|5~0_combout $end
$var wire 1 i inst1|XYSum|inst8|inst1~0_combout $end
$var wire 1 j inst1|XYSum|inst6|inst6~0_combout $end
$var wire 1 k inst1|zflag|inst3~2_combout $end
$var wire 1 l inst1|zflag|inst3~4_combout $end
$var wire 1 m inst1|zflag|inst~regout $end
$var wire 1 n inst|Q1Q0NZ~combout $end
$var wire 1 o inst1|RegY|lsmux|mux6|5~0_combout $end
$var wire 1 p inst1|XYSum|inst7|inst1~combout $end
$var wire 1 q inst1|RegX|mux8|$00000|auto_generated|result_node[6]~2_combout $end
$var wire 1 r inst1|XYSum|inst7|inst6~0_combout $end
$var wire 1 s inst1|XYSum|inst8|inst1~combout $end
$var wire 1 t inst1|RegX|mux8|$00000|auto_generated|result_node[4]~4_combout $end
$var wire 1 u inst1|XYSum|inst5|inst1~combout $end
$var wire 1 v inst1|RegX|mux8|$00000|auto_generated|result_node[2]~6_combout $end
$var wire 1 w inst1|XYSum|inst3|inst1~combout $end
$var wire 1 x inst1|RegY|lsmux|mux5|5~0_combout $end
$var wire 1 y inst1|RegY|ff8|dffs [7] $end
$var wire 1 z inst1|RegY|ff8|dffs [6] $end
$var wire 1 { inst1|RegY|ff8|dffs [5] $end
$var wire 1 | inst1|RegY|ff8|dffs [4] $end
$var wire 1 } inst1|RegY|ff8|dffs [3] $end
$var wire 1 ~ inst1|RegY|ff8|dffs [2] $end
$var wire 1 !! inst1|RegY|ff8|dffs [1] $end
$var wire 1 "! inst1|RegY|ff8|dffs [0] $end
$var wire 1 #! YIN~combout [7] $end
$var wire 1 $! YIN~combout [6] $end
$var wire 1 %! YIN~combout [5] $end
$var wire 1 &! YIN~combout [4] $end
$var wire 1 '! YIN~combout [3] $end
$var wire 1 (! YIN~combout [2] $end
$var wire 1 )! YIN~combout [1] $end
$var wire 1 *! YIN~combout [0] $end
$var wire 1 +! XIN~combout [7] $end
$var wire 1 ,! XIN~combout [6] $end
$var wire 1 -! XIN~combout [5] $end
$var wire 1 .! XIN~combout [4] $end
$var wire 1 /! XIN~combout [3] $end
$var wire 1 0! XIN~combout [2] $end
$var wire 1 1! XIN~combout [1] $end
$var wire 1 2! XIN~combout [0] $end
$var wire 1 3! inst1|RegX|ff8|dffs [7] $end
$var wire 1 4! inst1|RegX|ff8|dffs [6] $end
$var wire 1 5! inst1|RegX|ff8|dffs [5] $end
$var wire 1 6! inst1|RegX|ff8|dffs [4] $end
$var wire 1 7! inst1|RegX|ff8|dffs [3] $end
$var wire 1 8! inst1|RegX|ff8|dffs [2] $end
$var wire 1 9! inst1|RegX|ff8|dffs [1] $end
$var wire 1 :! inst1|RegX|ff8|dffs [0] $end
$upscope $end
$upscope $end
$enddefinitions $end
#0
$dumpvars
0!
1"
1#
b1111111 $
b100000 %
0&
0'
0/
0.
0-
0,
0+
0*
0)
0(
07
06
05
04
03
02
01
00
0?
0>
0=
0<
0;
0:
09
08
x@
0A
1B
xC
1D
1E
1F
0G
0H
0I
1J
1K
1L
0M
0N
0O
0P
1Q
1R
1S
1T
0U
0V
1W
0X
0Y
0Z
0[
1\
0]
0^
0_
0`
1a
0b
0c
0d
0e
0f
0g
0h
0i
0j
0k
1l
0m
0n
0o
0p
1q
0r
0s
1t
0u
1v
0w
1x
0"!
0!!
0~
0}
0|
0{
0z
0y
0*!
0)!
0(!
0'!
0&!
1%!
0$!
0#!
12!
11!
10!
1/!
1.!
1-!
1,!
0+!
0:!
09!
08!
07!
06!
05!
04!
03!
$end
#10000
0"
1!
0K
1H
1I
0L
0@
1{
18!
16!
14!
1m
15!
19!
17!
1:!
1M
1j
1w
1u
1p
0T
0R
1[
1_
1U
1i
1V
0J
1:
15
13
11
12
16
14
17
1&
1k
1`
0l
1s
0w
0u
0j
1f
0_
0[
1-
1+
1)
1.
1,
1/
0p
1(
0-
0+
1*
0,
0.
0)
#20000
0#
b111111 $
b11111 $
b1111 $
b111 $
b11 $
b1 $
b0 $
b0 %
0!
0Q
0%!
02!
01!
00!
0/!
0.!
0-!
0,!
0H
0I
1@
0x
0S
0\
0v
0W
0t
0a
0q
#30000
1!
1H
1I
0@
0m
1N
0M
1R
1O
0i
0V
1G
1'
0&
1a
1S
0s
1w
1u
1p
1j
0f
1_
1[
1v
1t
1q
1r
0p
0a
1W
1\
0(
1-
1+
1)
0*
1,
1.
1s
1g
0q
0)
1(
#40000
0!
0H
0I
1@
#50000
1!
1H
1I
0@
0{
0N
0j
1f
0R
0O
0:
0'
0r
1p
0v
0t
0g
0\
0W
0S
1*
0s
1)
0(
#60000
b1000000 %
b1010000 %
b1010100 %
b1010101 %
1#
b1000000 $
0!
1Q
1,!
1*!
1(!
1&!
1$!
0H
0I
1@
1T
1R
1J
1q
1P
1Y
1c
1o
#70000
1!
1H
1I
0@
08!
06!
1z
1|
05!
09!
1~
07!
0:!
1"!
1M
1r
0p
0f
0[
0_
1Z
1i
1V
0T
0R
0J
0G
05
03
19
1;
02
06
1=
04
07
1?
1&
1]
0w
0u
0r
1p
1f
1e
1_
1^
0)
0*
0.
0,
1w
1s
1j
0f
1d
0_
0-
0+
1)
1*
1,
1r
0p
0k
1u
1-
1(
0*
0,
0s
0)
1+
0(
#80000
b10101 %
b101 %
b1 %
b0 %
0#
b0 $
0!
0Q
0,!
0*!
0(!
0&!
0$!
0H
0I
1@
0q
0P
0Y
0c
0o
#90000
1!
1H
1I
0@
1N
0M
0i
0Z
0V
1R
1O
1G
1'
0&
1s
1k
1g
0]
0w
0u
1p
0j
1f
0d
1_
1v
1t
1S
1w
0^
0v
0t
1q
0p
1a
1u
0e
1W
1(
0-
0+
1)
1*
1,
1v
0_
0q
1t
0f
1-
0)
1+
0W
0a
0,
0*
#100000
0!
0H
0I
1@
#110000
1!
1H
1I
0@
0z
0|
0~
0"!
0N
0r
1p
0u
0w
0U
0S
0R
0O
09
0;
0=
0?
0'
0s
0g
0t
0v
0`
1)
0+
0-
0/
0(
#120000
b10000000 $
b10100000 $
b10110000 $
b10111000 $
b10111100 $
b10111110 $
b1 %
1#
b11111110 $
0!
1*!
11!
10!
1/!
1.!
1-!
1,!
1+!
1Q
0H
0I
1@
1P
1\
1v
1W
1t
1a
1q
1g
1T
1R
1J
#130000
1!
1H
1I
0@
18!
16!
13!
15!
19!
17!
1"!
1M
1w
1u
1f
1[
1_
1Z
1U
1V
0T
0R
0J
0G
15
13
10
12
16
14
1?
1&
1`
0w
0u
0p
0f
0_
0k
1-
1+
1*
1.
1,
1/
0-
0+
0)
0*
0,
#140000
b1111110 $
b1011110 $
b1001110 $
b1000110 $
b1000010 $
b1000000 $
b0 %
0#
b0 $
0!
0*!
01!
00!
0/!
0.!
0-!
0,!
0+!
0Q
0H
0I
1@
0P
0\
0v
0W
0t
0a
0q
0g
#150000
1!
1H
1I
0@
1N
0M
1i
0Z
0V
1R
1O
1G
1'
0&
1s
1k
1g
1w
1u
1p
1f
1_
1\
1S
1v
1t
1q
1a
1W
1(
1-
1+
1)
1*
1,
#160000
0!
0H
0I
1@
#170000
1!
1H
1I
0@
0"!
0N
0U
0S
0R
0O
0?
0'
0v
0t
0q
0g
0a
0\
0W
0/
#180000
b10000000 %
b10001000 %
b10001010 %
b11001010 %
b11001110 %
b10000000 $
b10001000 $
b10001100 $
b10001110 $
1#
b11001110 $
0!
11!
10!
1/!
1,!
1+!
1)!
1(!
1'!
1$!
1#!
1Q
0H
0I
1@
1\
1v
1W
1q
1g
1X
1Y
1b
1o
1h
1T
1R
1J
#190000
1!
1H
1I
0@
06!
1z
1y
1}
05!
1~
1!!
1M
0u
1r
0p
0k
1d
0_
0f
0w
1^
1]
0[
1Z
1V
0T
0R
0J
0G
03
19
18
1<
02
1=
1>
1&
0s
1e
0`
0r
1p
1f
1k
0+
0)
0,
0*
0-
0.
1j
0f
1s
0(
1)
1*
1r
0p
0k
0*
1(
0s
1l
0)
0(
#200000
b1001110 %
b1000110 %
b1000100 %
b100 %
b0 %
b1001110 $
b1000110 $
b1000010 $
b1000000 $
0#
b0 $
0!
01!
00!
0/!
0,!
0+!
0)!
0(!
0'!
0$!
0#!
0Q
0H
0I
1@
0\
0v
0W
0q
0g
0X
0Y
0b
0o
0h
#210000
1!
1H
1I
0@
1m
1N
0M
1n
1T
0i
0Z
0V
1G
1'
0&
1h
1c
1b
1Y
1s
1k
1w
1u
1p
0j
1f
0e
1_
0l
1`
0p
0f
1(
1-
1+
1)
1*
1,
0)
0*
#220000
0!
0H
0I
1@
#230000
1!
1H
1I
0@
08!
04!
0m
03!
09!
07!
0N
0w
0r
1p
0G
0n
0T
1i
0]
1[
0_
05
01
00
06
04
0'
0h
0c
0b
0Y
1w
0^
0-
1)
1.
0,
0d
1_
1-
0u
1,
0+
#239000
0!
0H
0I
1@
